{
  "categories": [
    {
      "shortname": "ppa",
      "fullname": "Prospective Provider Applicant",
      "mailvalidation": 0,
      "parent": 0,
      "sortorder": 1,
      "type": "pro"
    },
    {
      "shortname": "idsp",
      "fullname": "Intellectual Disability Service Provider",
      "mailvalidation": 0,
      "parent": 0,
      "sortorder": 2,
      "type": "pro"
    },
    {
      "shortname": "aasp",
      "fullname": "Adult Autism Service Provider",
      "mailvalidation": 0,
      "parent": 0,
      "sortorder": 3,
      "type": "pro"
    },
    {
      "shortname": "ae",
      "fullname": "Administrative Entity",
      "mailvalidation": 0,
      "parent": 0,
      "sortorder": 4,
      "type": "pro"
    },
    {
      "shortname": "others",
      "fullname": "Other roles",
      "mailvalidation": 0,
      "parent": 0,
      "sortorder": 9,
      "type": "pro"
    }
  ],
  "aasp": [
    {
      "shortname": "aasp_acap",
      "fullname": "ACAP Provider",
      "mailvalidation": 0,
      "sortorder": 300,
      "type": "pro"
    },
    {
      "shortname": "aasp_aawsc",
      "fullname": "AAW Supports Coordinator",
      "mailvalidation": 1,
      "sortorder": 301,
      "type": "pro"
    },
    {
      "shortname": "aasp_aawscs",
      "fullname": "AAW SC Supervisor",
      "mailvalidation": 1,
      "sortorder": 302,
      "type": "pro"
    },
    {
      "shortname": "aasp_aawssdp",
      "fullname": "AAW Specialized Skill Development Provider",
      "mailvalidation": 0,
      "sortorder": 303,
      "type": "pro"
    },
    {
      "shortname": "aasp_aawep",
      "fullname": "AAW Employment Provider",
      "mailvalidation": 0,
      "sortorder": 304,
      "type": "pro"
    },
    {
      "shortname": "aasp_aawtp",
      "fullname": "AAW Therapy Provider",
      "mailvalidation": 0,
      "sortorder": 305,
      "type": "pro"
    },
    {
      "shortname": "aasp_aawdsp",
      "fullname": "AAW Direct Support Professional",
      "mailvalidation": 0,
      "sortorder": 306,
      "type": "pro"
    },
    {
      "shortname": "aasp_aawpfs",
      "fullname": "AAW Provider Fiscal Staff",
      "mailvalidation": 0,
      "sortorder": 307,
      "type": "pro"
    },
    {
      "shortname": "aasp_aawpas",
      "fullname": "AAW Provider Administrative Staff",
      "mailvalidation": 0,
      "sortorder": 308,
      "type": "pro"
    },
    {
      "shortname": "aasp_others",
      "fullname": "Other AAW Service Provider (write-in)",
      "mailvalidation": 0,
      "haswritein": 1,
      "sortorder": 309,
      "type": "pro"
    }
  ],
  "aasp_aawssdp": [
    {
      "shortname": "aasp_aawssdp_bs",
      "fullname": "Behavioral Specialist",
      "mailvalidation": 0,
      "sortorder": 350,
      "type": "pro"
    },
    {
      "shortname": "aasp_aawssdp_ssb",
      "fullname": "Systematic Skill Building",
      "mailvalidation": 0,
      "sortorder": 351,
      "type": "pro"
    },
    {
      "shortname": "aasp_aawssdp_cs",
      "fullname": "Community Support",
      "mailvalidation": 0,
      "sortorder": 352,
      "type": "pro"
    }
  ],
  "ppa": [
    {
      "shortname": "ppa_aaw",
      "fullname": "Adult Autism Waiver",
      "mailvalidation": 0,
      "sortorder": 101,
      "type": "pro"
    },
    {
      "shortname": "ppa_pfdsw",
      "fullname": "Consolidated and Person/Family Directed Support (P/FDS) Waivers",
      "mailvalidation": 0,
      "sortorder": 102,
      "type": "pro"
    }
  ],
  "idsp": [
    {
      "shortname": "idsp_sc",
      "fullname": "Supports Coordinator",
      "mailvalidation": 1,
      "sortorder": 201,
      "type": "pro"
    },
    {
      "shortname": "idsp_scs",
      "fullname": "Supports Coordinator Supervisor",
      "mailvalidation": 1,
      "sortorder": 202,
      "type": "pro"
    },
    {
      "shortname": "idsp_scafs",
      "fullname": "Supports Coordination Administrative/Fiscal Staff",
      "mailvalidation": 1,
      "sortorder": 203,
      "type": "pro"
    },
    {
      "shortname": "idsp_dsp",
      "fullname": "Provider - Direct Support Professional",
      "mailvalidation": 0,
      "sortorder": 204,
      "type": "pro"
    },
    {
      "shortname": "idsp_pm",
      "fullname": "Provider - Provider Manager",
      "mailvalidation": 0,
      "sortorder": 205,
      "type": "pro"
    },
    {
      "shortname": "idsp_ped",
      "fullname": "Provider Executive Director/Fiscal",
      "mailvalidation": 0,
      "sortorder": 206,
      "type": "pro"
    },
    {
      "shortname": "idsp_pls",
      "fullname": "Provider – Life Sharing",
      "mailvalidation": 0,
      "sortorder": 207,
      "type": "pro"
    },
    {
      "shortname": "idsp_sdsp",
      "fullname": "Self-directed Service Provider",
      "mailvalidation": 0,
      "sortorder": 208,
      "type": "pro"
    },
    {
      "shortname": "idsp_vendor",
      "fullname": "Vendor (e.g. transportation, etc.)",
      "mailvalidation": 0,
      "sortorder": 209,
      "type": "pro"
    }
  ],
  "ae" : [
    {
      "shortname": "ae_staff",
      "fullname": "Administrative Entity (AE) Staff",
      "mailvalidation": 1,
      "sortorder": 400,
      "type": "pro"
    },
    {
      "shortname": "ae_director",
      "fullname": "Administrative Entity, ID Director",
      "mailvalidation": 1,
      "sortorder": 401,
      "type": "pro"
    },
    {
      "shortname": "ae_fs",
      "fullname": "Administrative Entity, Fiscal Staff",
      "mailvalidation": 1,
      "sortorder": 402,
      "type": "pro"
    },
    {
      "shortname": "ae_admin",
      "fullname": "Administrative Entity/County Administrator",
      "mailvalidation": 1,
      "sortorder": 403,
      "type": "pro"
    }
  ],
  "others": [
    {
      "shortname": "others_odp",
      "fullname": "ODP Staff",
      "mailvalidation": 1,
      "sortorder": 500,
      "type": "pro"
    },
    {
      "shortname": "others_asert",
      "fullname": "ASERT (Autism Services, Education, Resources and Training)",
      "mailvalidation": 0,
      "sortorder": 501,
      "type": "pro"
    },
    {
      "shortname": "others_hcqu",
      "fullname": "HCQU (Health Care Quality Unit)",
      "mailvalidation": 0,
      "sortorder": 502,
      "type": "pro"
    },
    {
      "shortname": "others_ci",
      "fullname": "Certified Investigator",
      "mailvalidation": 0,
      "sortorder": 503,
      "type": "pro"
    },
    {
      "shortname": "others_sb",
      "fullname": "Supports Broker",
      "mailvalidation": 0,
      "sortorder": 504,
      "type": "pro"
    },
    {
      "shortname": "others_nurse",
      "fullname": "Nurse",
      "mailvalidation": 0,
      "sortorder": 505,
      "type": "pro"
    },
    {
      "shortname": "others_mp",
      "fullname": "Medical Professional",
      "mailvalidation": 0,
      "sortorder": 506,
      "type": "pro"
    },
    {
      "shortname": "others_ovr",
      "fullname": "OVR (Office of Vocational Rehabilitation)",
      "mailvalidation": 0,
      "sortorder": 507,
      "type": "pro"
    },
    {
      "shortname": "others_other",
      "fullname": "Other (write in)",
      "mailvalidation": 0,
      "haswritein": 1,
      "sortorder": 508,
      "type": "pro"
    }
  ],
  "roles": [
    {
      "shortname": "bhrs",
      "fullname": "BHRS Provider – Children’s Services",
      "mailvalidation": 0,
      "parent": 0,
      "sortorder": 5,
      "type": "pro"
    },
    {
      "shortname": "fba",
      "fullname": "FBA Training Attendee or Trainer",
      "mailvalidation": 0,
      "parent": 0,
      "sortorder": 6,
      "type": "pro"
    },
    {
      "shortname": "act62",
      "fullname": "Act 62 Behavior Specialist License Applicants",
      "mailvalidation": 0,
      "parent": 0,
      "sortorder": 7,
      "type": "pro"
    },
    {
      "shortname": "mata",
      "fullname": "Medication Administration Trainer or Applicant",
      "mailvalidation": 0,
      "parent": 0,
      "sortorder": 8,
      "type": "pro"
    }
  ]
}
