100769239,CRAWFORD COUNTY COMMISSIONERS,CRAWFORD COUNTY HUMAN SERVICES,Both,,,,,,
102490932,MICHAEL WILLIAM KUSHIN,"KUSHIN, MICHAEL",ID,1650 FERNDALE AVE # 2,,,ABINGTON,PA,19001-1715
102118773,ACME PROVIDERS INC,ACME PROVIDERS INC,ID,239 THOMPSON RD,,,ACME,PA,15610-1377
102966694,ALRICH MEADOWS LLC,ALRICH MEADOWS LLC,ID,87 OLD STAGE RD,,,ALBRIGHTSVILLE,PA,18210-3607
100002859,WAKEFIELD COTTAGE LLC,WAKEFIELD COTTAGE LLC,ID,PO BOX 314,,,ALBRIGHTSVILLE,PA,18210-0314
102336718,LINGROUP INC,LINGROUP INC,ID,130 S CLIFTON AVE,,,ALDAN,PA,19018-3905
100001922,BEAVER COUNTY REHABILITATION CENTER INC,BEAVER COUNTY REHABILITATION CENTER INC,Both,131 PLEASANT DR,,,ALIQUIPPA,PA,15001-1384
001828313,AROUND THE CLOCK NURSING INC,AROUND THE CLOCK NURSING INC,ID,3136 HAMILTON BOULEVARD,SUITE 104,,ALLENTOWN,PA,18103 -
102084755,DEREKS DREAM INC,DEREKS DREAM INC,ID,1941 WEHR AVE,,,ALLENTOWN,PA,18104-1127
102895921,DF HEALTHCARE PARTNERS LLC,DF HEALTHCARE PARTNERS LLC,ID,5100 W TILGHMAN STREET,SUITE 205,,ALLENTOWN,PA,18104 -
100002993,EASTER SEALS EASTERN PENNSYLVANIA,EASTER SEALS EASTERN PENNSYLVANIA,ID,1501 LEHIGH ST,STE 201,,ALLENTOWN,PA,18103-3880
102888687,EVERYDAY HOME CARE LLC,EVERYDAY HOME CARE LLC,Autism,4949 LIBERTY LN,SUITE 210,,ALLENTOWN,PA,18106-9014
001835283,LEHIGH AND NORTHAMPTON L A N T A,LEHIGH & NORTHAMPTON TRANSPORT AUTH,ID,1060 LEHIGH ST,,,ALLENTOWN,PA,18103-3130
101266074,LEHIGH VALLEY CENTER FOR INDEPENDENT LIV,LEHIGH VALLEY CENTER FOR INDEPENDENT LIVING INC,Both,1501 LEHIGH ST,,,ALLENTOWN,PA,18103-3880
102810058,MERCY SPECIAL LEARNING CENTER INC,MERCY SPECIAL LEARNING CENTER INC,ID,830 S WOODWARD ST,,,ALLENTOWN,PA,18103-3440
100003346,PERSON DIRECTED SUPPORTS INC,PERSON DIRECTED SUPPORTS INC,ID,5925 TILGHMAN ST STE 90,,,ALLENTOWN,PA,18104-9140
102920200,QUALITY LIFE HUMAN SERVICES,QUALITY LIFE HUMAN SERVICES LLC,ID,1275 GLENLIVET DR,STE 305,,ALLENTOWN,PA,18106-3106
102583147,PATHWAYS COMMUNITY LIVING,PATHWAYS COMMUNITY LIVING,ID,4065 ALPHA DR,,,ALLISON PARK,PA,15101-2961
100199807,ALLEGHENY LUTHERAN SOCIAL MINISTRIES INC,ALLEGHENY LUTHERAN SOCIAL MINISTRIES,ID,998 LOGAN BLVD,,,ALTOONA,PA,16602-4026
102863543,JODI B BERGER,BERGER JODI B,ID,701 ERIN DR,,,ALTOONA,PA,16602-7613
001713736,BLAIR SENIOR SERVICESINC,BLAIR SENIOR SERVICESINC,ID,1320 12TH AVE,,,ALTOONA,PA,16601 -
100693239,CROSSROADS SERVICES INC,CROSSROADS SERVICES INC,ID,3712 BROAD AVE,,,ALTOONA,PA,16601-1326
100000620,FAMILY SERVICES INCORPORATED,FAMILY SERVICES INC,ID,2022 BROAD AVE,,,ALTOONA,PA,16601-2014
100776780,HOME NURSING AGENCY & VISITING NURSE ASS,HOME NURSING AGENCY & VISITING NURSE ASSOCIATION,ID,PO BOX 352,,,ALTOONA,PA,16603-0352
100000765,HOME NURSING AGENCY COMMUNITY SERVICES,HOME NURSING AGENCY COMMUNITY SERVICES,ID,PO BOX 352,,,ALTOONA,PA,16603-0352
100777437,NORTH STAR SERVICES INC,NORTH STAR SERVICES INC,ID,125 LAKEMONT PARK BLVD,,,ALTOONA,PA,16602-5943
102143613,TRANSPORTATION & MOTOR BUSES FOR PUBLIC,TRANSPORTATION & MOTOR BUS FOR PUBLIC USE-AMTRAN,ID,3301 5TH AVE,,,ALTOONA,PA,16602-1801
101870300,WEKARE SUPPORTS LLC,"WEAVER, MICHAEL",ID,1501 CRAWFORD AVE,,,ALTOONA,PA,16602-4605
100006867,"WEISS KNEPP, SANDRA M.","WEISS KNEPP, SANDRA",ID,1758 E CLEMSON RD,,,ALTOONA,PA,16602-7434
102571674,SUPPORT FOR INDEPENDENT LIVING LLC,SUPPORT FOR INDEPENDENT LIVING,Both,2320 HAVERFORD RD STE 220,,,ARDMORE,PA,19003-2913
102202910,ENDLESS MOUNTAINS TRANSPORTATION AUTHORI,ENDLESS MOUNTAINS TRANSPORTATION AUTHORITY,ID,27824 ROUTE 220,,,ATHENS,PA,18810-9687
100004503,PENN YORK OPPOR FOR THE HANDICAPPED INC,PENN-YORK OPPORTUNITIES FOR THE HANDICAPPED INC,ID,101 S MAIN ST,,,ATHENS,PA,18810-1611
100007962,PEDIATRIC SERVICES OF AMERICA INC,PEDIATRIC SERVICES OF AMERICA INC,ID,SIX CONCOURSE PKWY,SUITE 1100,,ATLANTA,GA,30328 -
101128069,LORIS ANGELS,HOME HEALTH & SUPPORT SERVICES,ID,942 LONE STAR DR,,,AUBURN,PA,17922-9247
102909070,BEHAVIORAL AND CULTURAL DEVELOPMENT SOLU,BEHAVIORAL AND CULTURAL DEVELOPMENT SOLUTIONS,Autism,150 MONUMENT RD STE 207,,,BALA CYNWYD,PA,19004-1725
100005841,BRADLEY BIEDERMANN,"BIEDERMANN, BRADLEY",ID,211 FAIRVIEW TER,,,BALA CYNWYD,PA,19004-1810
103027190,EPIC PROFESSIONALS LLC,EPIC PROFESSIONALS LLC,ID,225 E CITY AVE,,,BALA CYNWYD,PA,19004-1704
102796010,JESSICA L CONTI,JESSICA L CONTI,Autism,"300 W LOMBARD ST, #811",,,BALTIMORE,MD,21201-2535
102853369,ADVANCED BEHAVIOR TREATMENT LLC,ADVANCED BEHAVIOR TREATMENT LLC,ID,9 WILLHELEN CT,,,BEAR,DE,19701-4818
100758398,BEAVER COUNTY MH/MR,BEAVER COUNTY MH/MR,ID,810 3RD ST,,,BEAVER,PA,15009-2139
100003720,H A P ENTERPRISES INC,H A P ENTERPRISES INC,ID,310 WAYNE ST,,,BEAVER,PA,15009-2252
001849986,HOMEMAKER-HOME HEALTH AIDE SERVICE,HOMEMAKER-HOME HLTH AIDE SVC BEAVER,ID,376 MARKET ST,,,BEAVER,PA,15009-2917
101216813,MEDICAL STAFFING ASSOCIATES INC,MEDICAL STAFFING ASSOCIATES INC,ID,659 3RD ST,,,BEAVER,PA,15009-2115
100003785,CTC MANUFACTURING INC,CTC MANUFACTURING INC,ID,100 HAZLE ST,,,BEAVER MEADOWS,PA,18216 -
100000756,HELPING HANDS INC,HELPING HANDS INC,ID,415 HOFFMANSVILLE RD,,,BECHTELSVILLE,PA,19505-9522
001949838,CARE FOR PEOPLE PLUS INC,CARE FOR PEOPLE PLUS INC,ID,PO BOX 359,,,BELLEFONTE,PA,16823-0359
100729663,COUNTY OF CENTRE PENNSYLVANIA,CENTRE COUNTY COMMRS,ID,420 HOLMES ST RM 242,,,BELLEFONTE,PA,16823-1401
102889316,SUNNY DAYS ADULT DAILY LIVING CENTER INC,SUNNY DAYS ADULT DAILY LIVING CENTER INC,ID,105 STONECREST DR,STE 1,,BELLEFONTE,PA,16823-8574
001906840,ASSOCIATES HOMECARE INC,ASSOCIATES HOMECARE INC,ID,800 CLARMONT AVE,STE B,,BENSALEM,PA,19020-5705
102683868,PURE HEART COMMUNITY SERVICES INC,PURE HEART COMMUNITY SERVICES INC,Autism,5210 WINDWARD LN,,,BENSALEM,PA,19020-4061
100002358,MELMARK INC,MELMARK INC,ID,2600 WAYLAND RD,,,BERWYN,PA,19312-2307
001692805,YWCA OF BETHLEHEM,BETHLEHEM YWCA ADULT DAY SERVICE,ID,3895 ADLER PL,BLDG 1 STE 180,,BETHLEHEM,PA,18017-9092
100001074,LIFE PATH INC,LIFE PATH INC,ID,3500 HIGH POINT BLVD,,,BETHLEHEM,PA,18017-7803
100003909,PHOENIX SERVICES INC,PHOENIX SERVICES INC,ID,83 S COMMERCE WAY STE 350,,,BETHLEHEM,PA,18017-8934
001589288,RX HOME CARE INC,RX HOME CARE INC,ID,207 WEST BROAD ST,,,BETHLEHEM,PA,18018 -
100004147,SPECTRUM COMMUNITY SERVICES INC,SPECTRUM COMMUNITY SERVICES INC,Both,83 S COMMERCE WAY,STE 350,,BETHLEHEM,PA,18017-8934
100003220,THE ARC OF LEHIGH AND NORTHAMPTON COUNTI,THE ARC OF LEHIGH NORTHAMPTON COUNTIES INC,ID,2289 AVENUE A,,,BETHLEHEM,PA,18017-2107
100004844,VIA OF THE LEHIGH VALLEY INC,VIA OF THE LEHIGH VALLEY INC,Both,336 W SPRUCE ST,,,BETHLEHEM,PA,18018-3739
102256125,AMUDIPES RESIDENTIAL & DAY TREATMENT FAC,AMUDIPES RESIDENTIAL & DAY TREATMENT FACILITIES,Both,90 NORRISTOWN ROAD,,,BLUE BELL,PA,19422-2802
100000489,DELTA COMMUNITY SUPPORTS INC,DELTA COMMUNITY SUPPORTS INC,ID,1777 SENTRY PKWY W,GWYNEDD HALL STE 400,,BLUE BELL,PA,19422-2207
100000999,KENCREST SERVICES,KENCREST SERVICES,Both,960A HARVEST DR,STE 100,,BLUE BELL,PA,19422-1900
100007800,MICHAEL MEYER,"MEYER, MICHAEL",ID,1597 DAWS RD,,,BLUE BELL,PA,19422-3606
100001691,SUBURBAN TRANSIT NETWORK INC,"SUBURBAN TRANSIT NETWORK, INC.",ID,980 HARVEST DR,STE 100,,BLUE BELL,PA,19422-1955
101395625,DONNA A CONNOR,"CONNOR, DONNA",ID,2663 OGDEN AVE,,,BOOTHWYN,PA,19061 -
102218302,CREATIVE SUPPORTS INSTITUTE LLC,CREATIVE SUPPORTS INSTITUTE LLC,ID,PO BOX 2112,,,BOOTHWYN,PA,19061-8112
100833877,PUBLIC PARTNERSHIPS LLC,PUBLIC PARTNERSHIPS LLC,ID,148 STATE ST,10TH FL,,BOSTON,MA,02109-2506
102718892,PUBLIC PARTNERSHIPS LLC,PUBLIC PARTNERSHIPS LLC,ID,148 STATE ST FL 10,,,BOSTON,MA,02109-2510
102604130,RMKING SERVICES,RMKING SERVICES,ID,1206 GRANDVIEW AVE,,,BRADDOCK,PA,15104-2728
100728138,TURTLE CREEK VALLEY MENTAL HEALTH,TURTLE CREEEK VALLEY MENTAL HEALTH,ID,723 BRADDOCK AVE,,,BRADDOCK,PA,15104-1849
101383320,COMMUNITY LINKS,COMMUNITY LINKS,ID,20 RUSSELL BLVD,SUITE 104,,BRADFORD,PA,16701-3247
100000596,EVERGREEN ELM INC,EVERGREEN ELM INC,ID,71 MAIN ST STE 303,,,BRADFORD,PA,16701-2077
100004067,FUTURES REHABILITATION CENTER INC,FUTURES REHABILITATION CENTER INC,ID,1 FUTURES WAY,,,BRADFORD,PA,16701-1866
100002643,THE GUIDANCE CENTER,GUIDANCE CENTER,ID,110 CAMPUS DR,,,BRADFORD,PA,16701-1982
001880304,CARL J LONGOSKY,"LONGOSKY, CARL",ID,339 BOLIVAR DR,,,BRADFORD,PA,16701-3133
100001299,RAMSBOTTOM CENTER INC,RAMSBOTTOM CENTER INC,ID,800 E MAIN ST,,,BRADFORD,PA,16701-3278
100004002,YWCA OF BRADFORD,YWCA OF BRADFORD,ID,24 W CORYDON ST,,,BRADFORD,PA,16701-2231
100903926,ROBERT BILENKY,"BILENKY, ROBERT",ID,349 ROADSTOWN GREENWICH RD,,,BRIDGETON,NJ,08302-5752
100002895,CHARTIERS CENTER,CHARTIERS CENTER,ID,437 RAILROAD ST,,,BRIDGEVILLE,PA,15017-2391
100006188,WEIBLINGERS RESIDENTIAL CARE INC,WEIBLINGERS RESIDENTIAL CARE INC,ID,1370 WASHINGTON PIKE,STE 106,,BRIDGEVILLE,PA,15017-2862
100000095,THE ARC OF JEFFERSON COUNTY,THE ARC OF JEFFERSON COUNTY,ID,246 EVERGREEN FARM RD,,,BROCKWAY,PA,15824-2518
102251156,HEBREW ACADEMY FOR SPECIAL CHILDREN INC,HEBREW ACADEMY FOR SPECIAL CHILDREN INC,ID,5902 14TH AVE,,,BROOKLYN,NY,11219-5039
102266462,SHARON LISS SWEENEY,"LISS-SWEENEY, SHARON",ID,266 MARPLE RD,,,BROOMALL,PA,19008-2042
100002607,NATIONAL MENTOR HEALTHCARE LLC,NATIONAL MENTOR HEALTHCARE LLC,Both,450 PARK WAY,STE 204,,BROOMALL,PA,19008-4202
100000872,JUDITH CREED HOMES FOR ADULT INDEPENDENC,JUDITH CREED HOMES FOR ADULT INDEPENDENCE JCHAI,Both,FEDERATION HALL,274 S BRYN MAWR AVE,,BRYN MAWR,PA,19010 -
101308307,KALEIDOSCOPE FAMILY SOLUTIONS INC,KALEIDOSCOPE FAMILY SOLUTIONS INC,Both,940 E HAVERFORD RD STE 102,,,BRYN MAWR,PA,19010-3845
100005082,MAIN LINE ADULT DAY CENTER,MAIN LINE ADULT DAY CARE,ID,119 RADNOR ST,,,BRYN MAWR,PA,19010 -
102582337,GRACEFULL PROGRESS,GRACEFULL PROGRESS,Autism,PO BOX 424,,,BUCK HILL FALLS,PA,18323-0424
102861342,ANGELA M DEAMER HAPPY VALLEY HAB-AIDE,"DEAMER, ANGELA",ID,543 E FREEDOM AVE,,,BURNHAM,PA,17009-1306
102285557,ALLIANCE FOR NONPROFIT RESOURCES,ALLIANCE FOR NONPROFIT RESOURCES,ID,212-214 SOUTH MAIN ST,STE 1023,,BUTLER,PA,16001-5914
100749100,CENTER FOR COMMUNITY RESOURCES INCORPORA,CENTER FOR COMMUNITY RESOURCES INCORPORATED,ID,212-214 S MAIN ST STE 625,,,BUTLER,PA,16001-5914
100001495,COMMUNITY CARE CONNECTIONS INC,COMMUNITY CARE CONNECTIONS INC,ID,114 SKYLINE LN,,,BUTLER,PA,16001-8762
101570476,INDEPENDENCE PROFESSIONALS LLC,INDEPENDENCE PROFESSIONALS LLC,ID,322 CLARK AVE,,,BUTLER,PA,16002-3852
100003515,IRENE STACY COMMUNITY MENTAL HEALTH CENT,IRENE STACY COMMUNITY MENTAL HEALTH CENTER,ID,112 HILLVUE DR,,,BUTLER,PA,16001-3426
100001092,LIFESTEPS INC,LIFESTEPS,Both,383 NEW CASTLE RD,,,BUTLER,PA,16001-1743
100002017,THE ARC OF PENNSYLVANIA BUTLER COUNTY AR,THE ARC OF BUTLER COUNTY,ID,112 HOLLYWOOD DR STE 202,,,BUTLER,PA,16001-5697
100749942,VOCATIONAL SERVICES,VOCATIONAL SERVICES,Both,350 N MAIN ST,,,BUTLER,PA,16001-4921
102663014,MON VALLEY CARES,MON VALLEY CARES,ID,217 WOOD ST,,,CALIFORNIA,PA,15419-1048
100007185,CHRISTINE L ACHENBACH,"ACHENBACH, CHRISTINE",ID,116 DEERFIELD RD,,,CAMP HILL,PA,17011-8432
100003112,AHEDD,AHEDD,Both,3300 TRINDLE RD,,,CAMP HILL,PA,17011-4432
100003533,HUMAN ACHIEVEMENT PROGRAM INC,HUMAN ACHIEVEMENT PROGRAM INC,ID,PO BOX 3090,18 W MAIN ST,,CAMP HILL,PA,17011-3090
100001501,UNITED CEREBRAL PALSY,UNITED CEREBAL PALSY OF CENTRAL PA,Both,925 LINDA LN,,,CAMP HILL,PA,17011-6402
102804041,QUALITY COMMUNITY LIVING INC,QUALITY COMMUNITY LIVING INC,ID,230 HUNTING CREEK RD,,,CANONSBURG,PA,15317-2324
102542940,ALTERNATIVE BEHAVIOR CONSULTANTS LLC,ALTERNATIVE BEHAVIOR CONSULTANTS LLC,ID,224 S HANOVER ST,,,CARLISLE,PA,17013-3913
100007309,CUMBERLAND/PERRY MH/MR PROG,CUMBERLAND/PERRY MH/MR PROG,ID,1 COURT HOUSE SQ,ROOM 207,,CARLISLE,PA,17013-3323
100000460,THE ARC OF CUMBERLAND AND PERRY COUNTIES,THE ARC OF CUMBERLAND AND PERRY COUNTIES,ID,71 ASHLAND AVE,,,CARLISLE,PA,17013-2601
101047274,NEW AGE HEALTH CARE CORPORATION,NURSEFINDERS OF WESTERN PENNA,ID,510 E MAIN ST,,,CARNEGIE,PA,15106-2051
102866311,TRIAD BEHAVIOR SUPPORT SERVICES,TRIAD BEHAVIOR SUPPORT SERVICES LLC,ID,150 E MAIN ST,,,CARNEGIE,PA,15106-2437
100640342,ML SERVICES CORP,ML SERVICES CORP,ID,41236 BUELLS CORNERS RD,,,CENTERVILLE,PA,16404-6620
100007381,CHADDS FORD ALTERNACARE INC CRITICARE,CHADDS FORD ALTERNACARE INC CRITICARE,ID,5 CHRISTY DR,STE 104,,CHADDS FORD,PA,19317-9667
102611813,EAGLE HELPERS IN-HOME HEALTH CARE SERVIC,EAGLE HELPERS IN-HOME HEALTH CARE SERVICE LLC,ID,104 BRITTANY DR,,,CHALFONT,PA,18914-2331
100000611,FAMILY CARE SERVICES INC,FAMILY CARE SERVICES INC,ID,4385 EDENVILLE RD,,,CHAMBERSBURG,PA,17202-8052
100007443,MENNO HAVEN INC,MENNO HAVEN INC,ID,2011 SCOTLAND AVE,,,CHAMBERSBURG,PA,17201-1451
100001190,OCCUPATIONAL SERVICES INC,OCCUPATIONAL SERVICES INC,ID,17 REDWOOD STREET,,,CHAMBERSBURG,PA,17201 -
100005860,THE ARC OF FRANKLIN AND FULTON COUNTIES,THE ARC OF FRANKLIN AND FULTON COUNTIES,ID,2314 PHILADELPHIA AVE,,,CHAMBERSBURG,PA,17201-8933
100001619,DIVERSIFIED HUMAN SERVICES INC,DIVERSIFIED HUMAN SERVICES INC,ID,300 CHAMBER PLZ,,,CHARLEROI,PA,15022-1607
102795265,FIRST RATE REHABILITATION LLC,FIRST RATE REHABILITATION LLC,ID,7806 OAK LANE RD,,,CHELTENHAM,PA,19012-1015
101112176,BANCROFT INC,BANCROFT NEUROHEALTH A NEW JERSEY NONPROFIT CORP,ID,1255 CALDWELL RD,,,CHERRY HILL,NJ,08034-3220
100001314,ROSEHILL SCHOOL INC,ROSEHILL SCHOOL INC,ID,320 LLEWELYN ROAD,PO BOX 298,,CHESTER HEIGHTS,PA,19017-0298
102276610,CATHRYN STEIN DBA PROVIDER OF CO-OP SERV,CATHRYN STEIN DBA PROVIDER OF CO-OP SERV,Both,1467 HARK A WAY RD,,,CHESTER SPRINGS,PA,19425-2302
100001824,VALLEY SPECIAL NEEDS PROGRAMS INC,VALLEY SPECIAL NEEDS PROGRAMS INC,ID,1216 PITTSBURGH ST,,,CHESWICK,PA,15024-1445
100720882,ARC OF CLARION COUNTY INC,ARC OF CLARION COUNTY INC,ID,22 S 2ND AVE,,,CLARION,PA,16214-1937
100007390,CLARION CO COURT OF CCOMMOM PLEAS,CLARION CO,ID,330 MAIN ST,,,CLARION,PA,16214-1073
100000219,CLARION VOCATIONAL SERVICES INCORPORATED,CLARION VOCATIONAL SERVICES,ID,214 S 7TH AVE,,,CLARION,PA,16214-2053
101668858,CLARION VOCATIONAL SERVICES ISO INC,CLARION VOCATIONAL SERVICES ISO INC,ID,214 S 7TH AVE,,,CLARION,PA,16214-2053
100007499,VNA EXTENDED CARE SERVICES INC,VNA EXTENDED CARE SERVICES INC,ID,271 PERKINS RD,,,CLARION,PA,16214-8535
100680704,CAREGIVERS AMERICA LLC,CAREGIVERS AMERICA LLC (OLD),ID,107 SENECA AVE,,,CLARKS GREEN,PA,18411 -
100000291,ALLIED HEALTH CARE SERVICES,ALLIED HEALTH CARE SERVICES,ID,100 ABINGTON EXECUTIVE PAR,,,CLARKS SUMMIT,PA,18411-2260
102080442,CAREGIVERS AMERICA HOME HEALTH,CAREGIVERS AMERICA HOME HEALTH,ID,718 S STATE ST,,,CLARKS SUMMIT,PA,18411-1749
001897526,CAREGIVERS AMERICA LLC,CAREGIVERS AMERICA LLC,Both,718 S STATE ST,,,CLARKS SUMMIT,PA,18411-1749
100001010,KEYSTONE COMMUNITY RESOURCES INC,KEYSTONE COMMUNITY RESOURCES INC,ID,100 ABINGTON EXECUTIVE,PARK,,CLARKS SUMMIT,PA,18411-2260
100001029,KEYSTONE INDEPENDENT LIVING INC,KEYSTONE INDEPENDENT LIVING INC,ID,100 ABINGTON EXECUTIVE,PARK,,CLARKS SUMMIT,PA,18411-2260
100004030,RESIDENTIAL HABILITATION CONSULTANTS INC,RESIDENTIAL HABILITATION CONSULTANTS INC,ID,205 BARLEY SHEAF RD STE 7,,,COATESVILLE,PA,19320-2321
100002035,ADF INC,ADF INC,ID,86 FACTORY RD,,,COGAN STATION,PA,17728-9244
100000139,ADVANCE LANE TRAINING AND EMPLOYMENT COR,ADVANCE LANE TRAINING AND EMPLOYMENT CORPORATION,ID,3151 ADVANCE LN,,,COLMAR,PA,18915-9767
100729832,MAXIM HEALTHCARE SERVICES INC,MAXIM HEALTHCARE SERVICES INC,ID,7227 LEE DEFOREST DR,,,COLUMBIA,MD,21046-3236
100005930,INTERIM HEALTHCARE OF PITTSBURGH INC,INTERIM HEALTHCARE OF PITTSBURGH INC,ID,960 CHECKREIN AVE,,,COLUMBUS,OH,43229-1107
102870074,RIVERSTONES COUNSELING CENTER LLC,RIVERSTONES COUNSELING CENTER LLC,ID,610 E CRAWFORD AVE STE B,,,CONNELLSVILLE,PA,15425-2171
100001486,TWIN TREES INC,TWIN TREES INC,ID,2616 MEMORIAL BLVD STE C,,,CONNELLSVILLE,PA,15425-1418
100003319,ALLEGHENY VALLEY SCHOOL,ALLEGHENY VALLEY SCHOOL,ID,1996 EWINGS MILL RD,,,CORAOPOLIS,PA,15108-3310
102303996,OPEN ARMS HEALTH CARE LLC,OPEN ARMS HEALTH CARE LLC,ID,805 4TH AVE,,,CORAOPOLIS,PA,15108-1505
102943288,SUSANNA RENEE CLERMONT,SUSANNA CLERMONT,ID,1819 DEVONSHIRE RD,,,CORAOPOLIS,PA,15108-2209
100002527,COUNSELLING SERVICES CENTER OF SOUTHEAST,COUNSELLING SERVICES CENTER OF SOUTHEASTERN ERIE C,ID,45 EAST WASHINGTON STREET,,,CORRY,PA,16407-1638
100733450,POTTER COUNTY HUMAN SERVICES,POTTER COUNTY HUMAN SERVICES,ID,1 E 2ND ST,ROOM 22,,COUDERSPORT,PA,16915-1690
101413311,EPIC HEALTH SERVICES PA LLC,EPIC HEALTH SERVICES PA LLC,ID,5220 SPRING VALLEY RD,STE 400,,DALLAS,TX,75254-3099
100002090,CMSU BEHAVIORAL HEALTH & DEVELOPEMENTAL,CMSU BEHAVIORAL HEALTH & DEVELOPEMENTAL SERVICES,ID,100 TERRACE LN,BOX 219,,DANVILLE,PA,17821-2142
001762516,MONTOUR COUNTY TRANSIT,MONTOUR COUNTY TRANSIT,ID,112 WOODBINE LN,,,DANVILLE,PA,17821-8119
102953408,FIRST CHOICE HOME & COMMUNITY SERVICES I,FIRST CHOICE HOME & COMMUNITY SERVICES INC,ID,520 PUSEY AVE STE 230,,,DARBY,PA,19023-3300
101942508,HALIA HOME & COMMUNITY SERVICES INC,HALIA HOME & COMMUNITY SERVICES INC,ID,320 MACDADE BLVD STE 105,,,DARBY,PA,19023-1926
102853378,KEYSTONE CENTER FOR FAMILY DEVELOPEMENT,KEYSTONE CENTER FOR FAMILY DEVELOPEMENT,ID,548 S 4TH ST,,,DARBY,PA,19023-3118
102867604,SETTIME INC,SETTIME INC,ID,228 BLUNSTON AVE,,,DARBY,PA,19023-3708
001761081,KIM GRAY BEARD,"BEARD, KIM",ID,1610 PENNSYLVANIA AVE,,,DILLSBURG,PA,17019-9672
100728460,ADDUS HOMECARE,ADDUS HEALTHCARE INC,ID,2300 WARRENVILLE RD # 100,,,DOWNERS GROVE,IL,60515-1765
100359606,CHESTER COUNTY INTERMEDIATE UNIT ED SERV,CHESTER COUNTY INTERMEDIATE UNIT ED SERV,Both,455 BOOT RD,,,DOWNINGTOWN,PA,19335-3043
102312716,MISSION FOR EDUCATING CHILDREN WITH AUTI,MISSION FOR EDUCATING CHILDREN WITH AUTISM,Both,100 E LANCASTER AVE,STE 130,,DOWNINGTOWN,PA,19335-5937
102581812,ROVER COMMUNITY TRANSPORTATION INC,ROVER COMMUNITY TRANSPORTATION INC,ID,1002 S CHESTNUT ST,,,DOWNINGTOWN,PA,19335 -
102429577,COMPASS POINT TRAVEL,"WETZLER, CHRISTOPHER",ID,335 E LANCASTER AVE,SUITE F-12,,DOWNINGTOWN,PA,19335-2990
100003604,EMPLOYMENT TECHNOLOGY INC,EMPLOYMENT TECHNOLOGY INC,ID,3010 FARM LN,,,DOYLESTOWN,PA,18901 -
100772252,LENAPE VALLEY FOUNDATION,LENAPE VALLEY FOUNDATION,ID,500 N WEST ST,,,DOYLESTOWN,PA,18901-2366
100003856,TABOR CHILDRENS SERVICES INC,TABOR CHILDRENS SERVICES INC,ID,601 NEW BRITAIN RD,,,DOYLESTOWN,PA,18901-2788
102912773,ACUTE COMMUNITY HOME AID-ACHD,ACUTE COMMUNITY HOME AID ACHD INC,ID,3320 MARY ST,APT 2,,DREXEL HILL,PA,19026-2006
001936230,YCB INC,YCB INC,ID,423 BURMONT RD,,,DREXEL HILL,PA,19026-3032
100000845,INTERIM HEALTHCARE OF WESTERN PENNSYLVAN,INTERIM HEALTHCARE OF WESTERN PENNSYLVANIA INC,ID,127 N BRADY ST,STE B,,DU BOIS,PA,15801-2227
102395782,PERSONAL HABILITATION SERVICES LLC,PERSONAL HABILITATION SERVICES LLC,ID,150 W DUBOIS AVE STE G,,,DU BOIS,PA,15801-3000
102197150,ELLEN AUGUSTA BLACK,"BLACK, ELLEN",ID,649 HARVEST VIEW LN,,,DUNCANSVILLE,PA,16635-7427
102968518,LYNN ANN HALLER,"HALLER, LYNN",ID,649 HARVEST VIEW LN,,,DUNCANSVILLE,PA,16635-7427
103016384,LORI KARAGEANES,"KARAGEANES, LORI",ID,623 ORCHARD DR,,,DUNCANSVILLE,PA,16635-7441
001830071,PRIVATE CARE RESOURCES INC,PRIVATE CARE RESOURCES,ID,125 MAPLE HOLLOW RD,PO BOX 574,,DUNCANSVILLE,PA,16635-7920
102471051,ARC ALLIANCE ADVOCACY SERVICES,ARC ALLIANCE ADVOCACY SERVICES,ID,3075 RIDGE PIKE,,,EAGLEVILLE,PA,19403-1538
102611804,HELPING HANDS WITH CARE,HELPING HANDS WITH CARE,ID,422 RIDGE AVE,STE 8,,EAST PITTSBURGH,PA,15112-1029
102958997,LEHIGH VALLEY ADULT SERVICES HOPE CENTER,LEHIGH VALLEY ADULT SERVICES-HOPE CENTERS,ID,3421 NIGHTINGALE DR STE 2,,,EASTON,PA,18045-8013
100001270,PRIVATE INDUSTRY COUNCIL OF LEHIGH VALLE,PRIVATE INDUSTRY COUNCIL OF LEHIGH VALLEY INC,ID,72 N 2ND ST,,,EASTON,PA,18042-3640
100296936,THIRD ST ALLIANCE FOR WOMEN & CHLDR INC,THIRD STREET ALLIANCE FOR WOMEN,ID,41 N 3RD ST,,,EASTON,PA,18042-3642
102239133,PREFERRED HOME HEALTH CARE & NURSING SER,PREFERRED HOME HEALTH CARE & NURSING SERVICES INC,ID,45 MAIN ST,,,EATONTOWN,NJ,07724-3919
100741550,COUNTY OF CAMBRIA,COUNTY OF CAMBRIA,ID,CAMBRIA COUNTY COURTHOUSE,200 S CENTER CT,,EBENSBURG,PA,15931 -
100000390,CARELINK COMMUNITY SUPPORT SERVICES OF P,CARELINK COMMUNITY SUPPORT SERVICES OF PA INC,ID,1510 CHESTER PIKE STE 600,,,EDDYSTONE,PA,19022-1385
100647530,COMMUNITY TRANSIT OF DELAWARE COUNTY,COMMUNITY TRANSIT OF DELAWARE COUNTY,ID,206 EDDYSTONE AVE,SUITE 200,,EDDYSTONE,PA,19022-1594
102453160,AN ANSWERED PRAYER LLC,AN ANSWERED PRAYER LLC,ID,296 GROUSE DR,,,ELIZABETH,PA,15037-2314
102921235,ALLIUM TRICOCCUM LLC,AMRAMP,ID,27 COBBLE LN,,,ELIZABETHTOWN,PA,17022-8838
000747874,MASONIC VILLAGES OF THE GRAND LODGE OF P,MASONIC VILLAGES OF THE GRAND LODGE OF PA,ID,1 MASONIC DR,,,ELIZABETHTOWN,PA,17022-2199
100006965,"OSWALD, MICHAEL J.","OSWALD, MICHAEL",ID,8116 BROOKSIDE RD,,,ELKINS PARK,PA,19027-2402
100002877,CAPABILITIES INC.,CAPABILITIES INC,ID,1149 SULLIVAN ST,,,ELMIRA,NY,14901-1697
100002939,LIFESTYLE SUPPORT SERVICES INC,LIFESTYLE SUPPORT SERVICES INC,Both,PO BOX 303,,,ELMORA,PA,15737-0303
102602430,DAVID T LEAMER,"LEAMER, DAVID",Autism,1640 HOPEWELL RD,,,ELVERSON,PA,19520-8605
100764519,AMS CAREGIVERS INC,AMS CAREGIVERS INC,ID,32 N 3RD ST # 1,,,EMMAUS,PA,18049-2744
102797804,PROVIDENCE HOME CARE AGENCY INC,PROVIDENCE HOME CARE AGENCY INC,Autism,29 N 4TH ST,,,EMMAUS,PA,18049-2745
100002920,EPHRATA AREA REHAB SERVICES,EPHRATA AREA REHAB SERVICES,ID,27 CLOISTER AVE,,,EPHRATA,PA,17522-1701
102714015,HELEN ANNE AGRESTI,"AGRESTI, HELEN",Autism,4934 PEACH ST,,,ERIE,PA,16509-2043
100002483,COMMUNITY RESOURCES FOR INDEPENDENCE INC,COMMUNITY RESOURCES FOR INDEPENDENCE INC,Both,3410 W 12TH ST,,,ERIE,PA,16505-3649
100000522,DR GERTRUDE A BARBER CENTER INC,DR GERTRUDE A BARBER CENTER INC,ID,100 BARBER PL,,,ERIE,PA,16507-1863
100000531,DR GERTRUDE A BARBER CTR,DR GERTRUDE A BARBER IN HOME SERVICES INC,ID,100 BARBER PL,,,ERIE,PA,16507-1863
101754221,ERIE COUNTY CARE MANAGEMENT,ERIE COUNTY CARE MANAGEMENT,ID,1601 SASSAFRAS ST,,,ERIE,PA,16502-1858
100000578,ERIE HOMES FOR CHILDREN AND ADULTS INC,ERIE HOMES FOR CHILDREN AND ADULTS INC,Both,226 E 27TH ST,,,ERIE,PA,16504-1006
100749254,HEARTFELT HOME HEALTHCARE SERVICES INC,HEARTFELT HOME HEALTHCARE SERVICES INC,ID,4166 W RIDGE RD,,,ERIE,PA,16506-1722
102335102,KALEIDASCOPE INCORPORATED,KALEIDASCOPE INCORPORATED,Autism,4934 PEACH ST,,,ERIE,PA,16509-2043
100001047,LAKESHORE COMMUNITY SERVICES INC,LAKESHORE COMMUNITY SERVICES INC,ID,1350 W 26TH ST,,,ERIE,PA,16508-1402
100000685,LARCHE ERIE INC,LARCHE ERIE INC,ID,3745 W 12TH ST,,,ERIE,PA,16505-3504
100001440,SUPPORTIVE LIVING SERVICES INC,SUPPORTIVE LIVING SERVICES INC,ID,210 E 2ND ST,,,ERIE,PA,16507-1559
102907586,EMMAUS HOME INC,EMMAUS HOME INC,ID,546 WANAMAKER AVE,,,ESSINGTON,PA,19029-1118
102870092,KBE SERVICES LLC,KBE SERVICES LLC,ID,189 N MILK AND WATER RD,,,EVERETT,PA,15537-8438
103052021,COMMUNITY LIVING SERVICES,COMMUNITY LIVING SERVICES,Autism,1262 WYOMING AVE,,,EXETER,PA,18643-1454
100004817,ADULT CARE OF CHESTER COUNTY INC,ADULT CARE OF CHESTER COUNTYINC,ID,201 SHARP LANE,SHARP LANE CENTER,,EXTON,PA,19341 -
100000184,BRIANS HOUSE INCORPORATED,BRIANS HOUSE INCORPORATED,ID,757 SPRINGDALE DR,,,EXTON,PA,19341-2829
100004183,DALESIO AND ASSOCIATES INC,DALESIO AND ASSOCIATES INC,ID,319 N POTTSTOWN PIKE,STE 201,,EXTON,PA,19341-2218
100772735,HOLCOMB ASSOCIATES INC,HOLCOMB ASSOCIATES INC,ID,467 CREAMERY WAY,,,EXTON,PA,19341-2508
100000854,KELSCH ASSOCIATES INC,KELSCH ASSOCIATES INC,ID,319 N POTTSTOWN PIKE,STE 305,,EXTON,PA,19341-2218
100000774,HUMAN ACHIEVEMENT PROJECT INC,HUMAN ACHIEVEMENT PROJECT INC,ID,PO BOX 431,,,FAIRVIEW VILLAGE,PA,19409-0431
102997556,GREENFIELD OF HARRISBURG LLC,GREENFIELD OF HARRISBURG LLC,ID,6312 SEVEN CORNERS CTR,SUITE 161,,FALLS CHURCH,VA,22044-2409
100005752,GOODWILL INDUSTRIES OF NCPA,GOODWILL INDUSTRIES OF NORTH CENTRAL PA INC,ID,131 PRESTON WAY,,,FALLS CREEK,PA,15840 -
102719094,LOVING CARE CENTER INC,LOVING CARE CENTER INC,ID,1918 PAUL ST,,,FARRELL,PA,16121-1324
102902169,THOUGHTFUL NEEDS,THOUGHTFUL NEEDS,ID,305 PERSHING DR,,,FARRELL,PA,16121-1520
100005304,ASSOCIATED PRODUCTION SERVICES INC,ASSOCIATED PRODUCTION SERVICES INC,ID,325 ANDREWS RD,,,FEASTERVILLE TREVOSE,PA,19053-3429
101993900,BETTER HOME CARE AGENCY LLC,BETTER HOME CARE AGENCY LLC,ID,1046 BUSTLETON PIKE,,,FEASTERVILLE TREVOSE,PA,19053-4165
102300297,SENIOR CARE CENTERS OF LUZERNE CO INC,SENIOR CARE CENTERS OF LUZERNE COUNTY INC,ID,6 NESHAMINY INTERPLEX DR,TE 401,,FEASTERVILLE TREVOSE,PA,19053-6964
100761651,SENIOR CARE CENTERS OF PENNSYLVANIA INC,SENIOR CARE CENTERS OF PENNSYLVANIA INC,ID,6 NESHAMINY INTERPLEX DR,FL 6,,FEASTERVILLE TREVOSE,PA,19053-6942
100934109,NANCY K NOWELL,"NOWELL, NANCY",ID,1101 WEDGEWOOD RD,,,FLOURTOWN,PA,19031-2125
102305453,CYNTHIA M ARNAO,"ARNAO, CYNTHIA",ID,536 SYCAMORE AVE,,,FOLSOM,PA,19033-1803
102818987,COMMONWEALTH SUPPORTIVE SERVICES INC,COMMONWEALTH SUPPORTIVE SERVICES INC,ID,1602 MACDADE BLVD,,,FOLSOM,PA,19033-1313
100002788,ARMSTRONG CARE INC,ARMSTRONG CARE INC,ID,1400 4TH AVE,PO BOX 231,,FORD CITY,PA,16226-1380
100000602,EVERGREEN HOMES INC,EVERGREEN HOMES INC,ID,101 ROSS AVENUE,PO BOX 471,,FORD CITY,PA,16226 -
100000120,ACCESS SERVICE INC,ACCESS INC,Both,500 OFFICE CENTER DR,STE 100,,FORT WASHINGTON,PA,19034-3219
102223545,ELLISON NURSING GROUP LLC,THE ELLISON NURSING GROUP LLC,ID,500 OFFICE CENTER DR,STE 400,,FORT WASHINGTON,PA,19034-3219
100667730,COUNTY OF VENANGO PENNSYLVANIA,VENANGO CO MH/MR/D & A,ID,ONE DALE AVE,,,FRANKLIN,PA,16323 -
102272684,PATRICIA ANN DIGIACOMO,"DIGIACOMO, PATRICIA",ID,195 GEORGIA RD,,,FREEHOLD,NJ,07728-8042
100001243,PENN MAR ORGANIZATION INC,PENN-MAR HUMAN SERVICES,ID,310 OLD FREEDLAND RD,,,FREELAND,MD,21053 -
102797564,SUNSET SUPPORT SERVICES LLC,SUNSET SUPPORT SERVICES LLC,ID,318 MAIN ST,,,GALLITZIN,PA,16641-1414
101008338,C & K SOLUTIONS INC,C & K SOLUTIONS INC,ID,91 NEWPORT RD STE 305,E 202,,GAP,PA,17527-9579
102912791,AEGIS BEHAVIORAL HEALTH INC,AEGIS BEHAVIORAL HEALTH INC,ID,1146 DARCZUK DR,,,GARNET VALLEY,PA,19060-1764
102062060,NICKS HOME,NICKS HOME,ID,PO BOX 94,,,GERMANSVILLE,PA,18053-0094
102912782,AUSTINS PLACE,AUSTINS PLACE,ID,276 KAUFMAN RD,,,GIBSONIA,PA,15044-7732
102155365,CAMPHILL SOLTANE,CAMPHILL SOLTANE,ID,224 NANTMEAL RD,,,GLENMOORE,PA,19343-2637
100729959,NHS MONTGOMERY COUNTY,NORTHWESTERN HUMAN SERVICES OF MONTGOMERY COUNTY,ID,906 BETHLEHEM PIKE,,,GLENSIDE,PA,19038-7731
100001851,ACCESSABILITIES INC,ACCESSABILITIES INC,ID,2900 SEMINARY DR,BLDG B,,GREENSBURG,PA,15601-3734
102912942,BEHAVIOR AND LEARNING SUPPORT,BEHAVIOR AND LEARNING SUPPORT,ID,390 LAKEWOOD RD,,,GREENSBURG,PA,15601-9769
100003506,CLELIAN HEIGHTS INC,CLELIAN HEIGHTS INC,ID,135 CLELIAN HEIGHTS LN,,,GREENSBURG,PA,15601-6665
100000415,COMMUNITY LIVING CARE INC,COMMUNITY LIVING CARE INC,ID,126 W PITTSBURGH ST,,,GREENSBURG,PA,15601-2331
102789132,DOWN TO EARTH COMMUNITY HOMES LLC,DOWN TO EARTH COMMUNITY HOMES LLC,ID,308 ALEXANDER AVE,,,GREENSBURG,PA,15601-2828
100762416,FAMILY BEHAVIORAL RESOURCES INC,FAMILY BEHAVIORAL RESOURCES INC,Autism,PO BOX 879,,,GREENSBURG,PA,15601-0879
100003490,WESTMORELAND COUNTY BLIND ASSOCIATION,PA ASSN FOR THE BLIND WESTMORELAND CTY BRANCH,ID,WESTMORELAND COUNTY BLIND,911 S MAIN STREET,,GREENSBURG,PA,15601-5048
101482631,REHABILITATION CENTER AND WORKSHOP INC,REHABILITATION CENTER & WORKSHOP INC,ID,1555 WOODWARD DRIVE EXT,,,GREENSBURG,PA,15601-6418
100000344,WESTMORELAND ARC PROSERV,WESTMORELAND ARC PROSERV,ID,316 DONOHOE RD,,,GREENSBURG,PA,15601-6988
100763502,WESTMORELAND CASEMANAGEMENT & SUPPO,WESTMORELAND C & S INC,ID,770 E PITTSBURGH ST,,,GREENSBURG,PA,15601-2604
100003426,YMCA OF GREENSBURG,YMCA OF GREENSBURG,ID,101 S MAPLE AVE,,,GREENSBURG,PA,15601-3215
102273082,SOUTH JERSEY COUNSELING ASSOCIATES INC,SOUTH JERSEY COUNSELING ASSOCIATES,ID,20 WARWICK RD,,,HADDONFIELD,NJ,08033-3705
102237371,ARCTURUS HOME CARE LLC,ARCTURUS HOME CARE LLC,ID,1687 N RIVER RD,,,HALIFAX,PA,17032-8939
102710624,SERVICE COORDINATION OF SOUTH CENTRAL PE,SERVICE COORDINATION OF SOUTH CENTRAL PENNSYLVANIA,Autism,141 BROADWAY STE 310,,,HANOVER,PA,17331-2547
100001842,UNITED CEREBRAL PALSY OF SOUTH CTRL PA,UNITED CEREBRAL PALSY OF SOUTH CENTRAL PA,ID,788 CHERRY TREE CT,,,HANOVER,PA,17331-7901
100007514,CORIS PLACE,CORIS PLACE,ID,495 WYOMING ST,,,HANOVER TOWNSHIP,PA,18706-3342
101900689,HEARTBEET LIFESHARING CORPORATION,HEARTBEET LIFESHARING CORPORATION,ID,218 TOWN FARM RD,,,HARDWICK,VT,05843-9885
102050603,FIRELY PEDIATRIC SERVICES INC,FIRELY PEDIATRIC SERVICES INC,ID,364 MAPLE AVE,,,HARLEYSVILLE,PA,19438-2212
001787650,HARLEYSVILLE PEDIATRIC HOME CARE,HARLEYSVILLE PEDIATRIC HOME CARE,ID,364 MAPLE AVE,,,HARLEYSVILLE,PA,19438-2212
100003079,PEACEFUL LIVING,PEACEFUL LIVING,Both,569 YODER RD,,,HARLEYSVILLE,PA,19438-1020
100681873,ANDVENTURE INC,ANDVENTURE INC,ID,4711 QUEEN ST,SUITE 101,,HARRISBURG,PA,17109-3125
102103135,ANGELS ON CALL LTD,ANGELS ON CALL LTD,ID,4813 JONESTOWN RD,STE 201,,HARRISBURG,PA,17109-1748
101477847,ARC OF DAUPHIN COUNTY,ARC OF DAUPHIN COUNTY,ID,2569 WALNUT ST,,,HARRISBURG,PA,17103-1760
101808108,BRY & WMS MEDICAL INC,BRY & WMS MEDICAL INC,ID,4371 UNION DEPOSIT RD,,,HARRISBURG,PA,17111-2905
100003177,CUMBERLAND DAUPHIN HARRISBURG TRANS,CAPITAL AREA TRANSIT,ID,901 N CAMERON ST,ATTN JOHN ZAVISCA,,HARRISBURG,PA,17105 -
101858549,CENTRAL PENNSYLVANIA SUPPORTIVE SERVICES,CENTRAL PENNSYLVANIA SUPPORTIVE SERVICES INC,ID,PO BOX 62126,,,HARRISBURG,PA,17106-2126
102888444,CHURCH ROAD HOME LLC,CHURCH ROAD HOME LLC,ID,3321 GREEN ST,,,HARRISBURG,PA,17110-1440
100002447,CMU,CMU,ID,1100 S CAMERON ST,STE 1,,HARRISBURG,PA,17104-2547
100913421,COMMUNITY BEHAVIORAL HEALTHCARE NETWORK,COMMUNITY BEHAVIORAL HEALTHCARE NET,ID,8040 CARLSON RD,,,HARRISBURG,PA,17112-9706
102887053,COOL WATERS LLC,COOL WATERS,ID,4601 LOCUST LANE,SUITE305,,HARRISBURG,PA,17109-6343
102770159,EASYUDO SERVICES LLC,EASYUDO SERVICES LLC,ID,119 REDWOOD ST,,,HARRISBURG,PA,17109-3723
100007980,ELITE STAFFING SERVICES INC,ELITE STAFFING SERVICES INC,ID,4800 LINGLESTOWN RD,STE 200,,HARRISBURG,PA,17112-9507
100003945,GOODWILL KEYSTONE AREA,GOODWILL KEYSTONE AREA,ID,1150 GOODWILL DR,,,HARRISBURG,PA,17101-2400
102578951,HOME TO STAY INC,HOME TO STAY INC,ID,5775 ALLENTOWN BOULEVARD,SUITE 100,,HARRISBURG,PA,17112-4049
102912835,IDEAL SERVICES GROUP LLC,IDEAL SERVICES GROUP LLC,ID,6443 BRITTAN RD,,,HARRISBURG,PA,17111-6980
102614261,KEON ENTERPRISES LLC,KEON ENTERPRISES LLC,ID,3751 RUTHERFORD STREET,,,HARRISBURG,PA,17111-1941
100001038,KEYSTONE SERVICE SYSTEMS INC,KEYSTONE SERVICE SYSTEMS INC,Both,124 PINE ST,,,HARRISBURG,PA,17101-1208
102005312,LIVING UNLIMITED INC,LIVING UNLIMITED INC,ID,4601 LOCUST LN STE 202,,,HARRISBURG,PA,17109-4445
100001744,NHS PENNSYLVANIA,NHS PENNSYLVANIA,Both,4391 STURBRIDGE DR,,,HARRISBURG,PA,17110-3673
102266490,"PA LIFESHARING, LLC",PA LIFESHARING LLC,ID,5706 ARKLOW DR,,,HARRISBURG,PA,17111-4732
100002287,RIVERSIDE ASSOCIATES PC,RIVERSIDE ASSOCIATES PC,ID,2818 GREEN ST,,,HARRISBURG,PA,17110-1228
100004192,THE ARC OF DAUPHIN AND LEBANON COUNTIES,THE ARC OF DAUPHIN AND LEBANON COUNTIES,ID,2569 WALNUT ST,,,HARRISBURG,PA,17103-1760
100007480,YOUTH ADVOCATE PROGRAMS INC,YOUTH ADVOCATE PROGRAMS INC,Both,2007 N 3RD ST,,,HARRISBURG,PA,17102-1815
101023915,LOVING CARE AGENCY INC,LOVING CARE AGENCY INC,ID,611 ROUTE 46 WEST,SUITE 200,,HASBROUCK HEIGHTS,NJ,07604 -
100005940,CHILD GUIDANCE RESOURCE CENTERS INC,CHILD GUIDANCE RESOURCE CENTERS INC,ID,2000 OLD WEST CHESTER PIKE,,,HAVERTOWN,PA,19083-2712
100833554,R & L HELPMATES INC,R & L HELPMATES INC,ID,1201 B N CHURCH ST,STE 310,,HAZLETON,PA,18202 -
100005046,TOMESTEAD INC,TOMESTEAD INC,ID,929 HILL VIEW RD,,,HELLAM,PA,17406-9328
102713724,LONG QUALITY CARE LLC,LONG QUALITY CARE LLC,ID,427 MAIN ST,STE 2,,HELLERTOWN,PA,18055-1721
100000863,ALLIANCE FOR BEHAVIORAL & DEVELOPMENTAL,ALLIANCE FOR BEHAVIORAL & DEVELOPMENTAL DISABILITI,ID,295 N KERRWOOD DR STE 108,,,HERMITAGE,PA,16148-5207
100000513,DIVERSIFIED FAMILY SERVICES INC,DIVERSIFIED FAMILY SERVICES INC,ID,5454 E STATE ST,PO BOX 1027,,HERMITAGE,PA,16148-9441
100000934,MCAR,MCAR,ID,850 N HERMITAGE RD,,,HERMITAGE,PA,16148-3220
101669668,ST MICHAELS HARBOUR INC,ST MICHAELS HARBOUR INC,Both,3674 E STATE ST,,,HERMITAGE,PA,16148-3411
102273108,THE ARC OF MERCER COUNTY,THE ARC OF MERCER COUNTY,ID,850 N HERMITAGE RD,,,HERMITAGE,PA,16148-3220
100001806,WHOLE LIFE SERVICES INC,WHOLE LIFE SERVICES INC,Both,1565 E STATE ST,,,HERMITAGE,PA,16148-1824
102894352,FARM OF HOPE INC,FARM OF HOPE INC,ID,201 TRAIL RD,,,HERSHEY,PA,17033-9425
102813363,TENDER LOVING CARE HEALTH CARE SERVICES,TENDER LOVING CARE HEALTH CARE SERVICES LLC,ID,644 SWEETBAY WAY,,,HERSHEY,PA,17033-3613
102897336,VISTA OUTPATIENT SERVICES INC,VISTA ADULT SERVICES ORGANIZATION,ID,1021 SPRINGBOARD DR,,,HERSHEY,PA,17033-8820
102290350,NEIGHBOURS INTERNATIONAL INC,NEIGHBOURS INTERNATIONAL INC,ID,49 WOODBRIDGE AVE,,,HIGHLAND PARK,NJ,08904-3236
100005000,BUCKS COUNTY TRANSPORT INC,BUCKS COUNTY TRANSPORT INC,ID,PO BOX 510,,,HOLICONG,PA,18928-0510
101942491,LEARNING COMMUNITY OF PENNSYLVANIA,LEARNING COMMUNITY OF PENNSYLVANIA,ID,920 PENN ST REAR,,,HOLLIDAYSBURG,PA,16648-2211
100003874,MOCAFA INC,MOCAFA INC,ID,1112 WALNUT ST,,,HOLLIDAYSBURG,PA,16648-2344
102669850,LLESS INC,LLESS INC,ID,62 MARTIC HEIGHTS DR,,,HOLTWOOD,PA,17532-9605
100000110,BLIND AND VISION REHABILITATION SERVICES,BLIND AND VISION REHABILITATION SERVICES OF PITTSB,ID,1800 WEST ST,,,HOMESTEAD,PA,15120-2563
100002311,TRANSITIONAL SERVICES INC,TRANSITIONAL SERVICES INC,ID,806 WEST ST,,,HOMESTEAD,PA,15120-1566
102774971,COMMUNITY VOCATIONAL SERVICES INC,COMMUNITY VOCATIONAL SERVICES INC,ID,235 VINE ST,,,HONESDALE,PA,18431-1636
100000783,HUMAN RESOURCE CENTER INC,HUMAN RESOURCES CENTER INC,Both,294 BETHEL SCHOOL RD,,,HONESDALE,PA,18431-3033
001731082,WAYNE COUNTY,WAYNE COUNTY,ID,648 PARK ST,,,HONESDALE,PA,18431-1471
102889307,ADL SUPPORT SERVICES LLC,ADL SUPPORT SERVICES LLC,ID,240 DEER RUN DR,,,HONEY BROOK,PA,19344-8693
100000747,GROWTH HORIZONS INC,GROWTH HORIZONS INC,ID,132 WELSH RD,STE 150,,HORSHAM,PA,19044-2221
101710791,SUSAN GRATALO CASTLE TRANSPORTATION,"GRATALO, SUSAN",ID,23 GRIFFITH STREET,CASTLE TRANSPORTATION,,HUGHESTOWN,PA,18640 -
100001969,RAYSTOWN DEVELOPMENT SERVICES INC,RAYSTOWN DEVELOPMENT SERVICES INC,ID,306 PENN ST,,,HUNTINGDON,PA,16652-1446
100668577,TRI-STATE CLINICAL SUPPORT SERVICES INC,TRI-STATE CLINICAL SUPPORT SERVICES INC,ID,2060 BUTTERNUT DR,,,HUNTINGDON VALLE,PA,19006-1733
100006938,SALMAN CORP,SALMAN CORP,Both,PO BOX 375,,,HUNTINGDON VALLEY,PA,19006-0375
001031899,CITIZENS AMBULANCE SERVICE INC,CITIZENS AMBULANCE SERVICE INC,ID,805 HOSPITAL RD,,,INDIANA,PA,15701-3629
100002554,COMMUNITY LIVING & LEARNING INC,COMMUNITY LIVING AND LEARNING INC,ID,1430 ROUTE 286 HWY E,STE 2,,INDIANA,PA,15701-1459
100006384,ICW VOCATIONAL SERVICES INC,ICW VOCATIONAL SERVICES INC,ID,155 N 10TH ST,,,INDIANA,PA,15701-1725
100003328,INDIANA COUNTY GUIDANCE CENTER,INDIANA COUNTY GUIDANCE CENTER,ID,793 OLD ROUTE 119 HWY N,,,INDIANA,PA,15701-1372
102905572,H V CAMBERG SERVICES INC,H V CAMBERG SERVICES INC,ID,11368 TYRONE PIKE,,,IRVONA,PA,16656-9101
101217679,LAIDLAW TRANSIT INC,LAIDLAW TRANSIT INC,ID,99 BILLOTT AVE,,OAKBROOK COMMONS,IRWIN,PA,15642-2014
101796268,EIHAB HUMAN SERVICES INC,EIHAB HUMAN SERVICES INC,ID,16818 S CONDUIT AVE,,,JAMAICA,NY,11434-4806
102932032,EIHAB HUMAN SERVICES PENNSYLVANIA INC,EIHAB HUMAN SERVICES PENNSYLVANIA INC,ID,161-18 S CONDUIT AVE,,,JAMAICA,NY,11434 -
100007720,LKI GROUP LLC,LKI GROUP LLC,ID,261 OLD YORK RD,609 PAVILLION,,JENKINTOWN,PA,19046-3706
102227221,RECCARE INC,RECCARE INC,ID,501 WASHINGTON LN STE 204A,,,JENKINTOWN,PA,19046-3145
001683038,AREA TRANSPORTATION AUTH OF NC PA,AREA TRANSPORTATION AUTH OF NC PA,ID,44 TRANSPORTATION RD,,,JOHNSONBURG,PA,15845-2102
101687110,ALLEGHENIES UNITED CEREBRAL PALSY,ALLEGHENIES UNITED CEREBRAL PALSY,Autism,119 JARI DR,SUITE 4,,JOHNSTOWN,PA,15904-6953
100004370,ALLEGHENIES UNLIMITED CARE PROVIDERS,ALLEGHENIES UNLIMITED CARE PROVIDERS,ID,119 JARI DR,,,JOHNSTOWN,PA,15904-6953
100003696,CAMBRIA CTY ASSN FOR THE BLIND & HANDICA,CAMBRIA CTY ASSN FOR THE BLIND HANDICAPPED,ID,211 CENTRAL AVE,,,JOHNSTOWN,PA,15902-2495
100000371,CAMBRIA RESIDENTIAL SVCS INC,CAMBRIA RESIDENTIAL SVCS INC,ID,338 BLOOMFIELD ST STE 100,,,JOHNSTOWN,PA,15904-3272
102884187,CROYLE-NIELSEN THERAPEUTIC ASSOCIATES IN,CROYLE-NIELSEN THERAPEUTIC ASSOCIATES INC,ID,1450 SCALP AVE STE 209,,,JOHNSTOWN,PA,15904-3335
100000710,GOODWILL INDUSTRIES OF THE CONEMAUGH VAL,GOODWILL INDUSTRIES OF THE CONEMAUGH VALLEY INC,ID,540 CENTRAL AVE,,,JOHNSTOWN,PA,15902-2674
100004764,CAMBRIA CTY CHAPTER FOR RET CTZNS,CAMBRIA COUNTY CHAPTER FOR RETARDED CITIZENS,ID,960 BEDFORD ST,,960 BEDFORD ST,JOHNSTOWN,PA,15902-3896
100001913,DEVEREUX FOUNDATION,DEVEREUX FOUNDATION,Both,2012 RENAISSANCE BLVD,,,KING OF PRUSSIA,PA,19406-2786
102216845,AWC SERVICES INC,AWC SERVICES INC,ID,562 WYOMING AVE,,,KINGSTON,PA,18704-3721
100000827,INSTITUTE FOR HUMAN RESOURCES & SERVICES,INSTITUTE FOR HUMAN RESOURCES & SERVICES,ID,250 PIERCE ST STE 301,,,KINGSTON,PA,18704-5149
102062041,LUZERNE COUNTY TRANSPORTATION AUTHORITY,LUZERNE COUNTY TRANSPORTATION AUTHORITY,ID,315 NORTHAMPTON ST,,,KINGSTON,PA,18704-5423
102932060,REACHING BEYOND LIMITS INC,REACHING BEYOND LIMITS INC,ID,4A GATEWAY SHOPPING CTR,,,KINGSTON,PA,18704 -
102288577,WILKES BARRE BEHAVIORAL HOSPITAL COMPANY,WILKES BARRE BEHAVIORAL HOSPITAL COMPANY,ID,562 WYOMING AVE,,,KINGSTON,PA,18704-3721
100756642,FAMILY COUNSELING CENTER OF ARMSTRONG CO,FAMILY COUNSELING CENTER OF ARMSTRONG COUNTY,ID,300 S JEFFERSON ST,,,KITTANNING,PA,16201-2416
100001978,PROGRESSIVE WORKSHOP OF ARMSTRONG COUNTY,PROGRESSIVE WORKSHOP OF ARMSTRONG COUNTY,ID,301 OAK AVE,,,KITTANNING,PA,16201-1311
100007470,TOWN AND COUNTRY TRANSIT,TOWN AND COUNTRY TRANSIT,ID,220 N GRANT AVE,,,KITTANNING,PA,16201-1404
102000281,POINT OF CARING INC,POINT OF CARING INC,ID,400 HUSTON AVE,,,KNOX,PA,16232-1814
100003275,NHS BUCKS COUNTY,NHS BUCKS COUNTY,ID,620 GERMANTOWN PIKE,,,LAFAYETTE HILL,PA,19444-1810
100003284,NHS CHESTER COUNTY,NHS CHESTER COUNTY,ID,620 GERMANTOWN PIKE,,,LAFAYETTE HILL,PA,19444-1810
100001753,NHS DELAWARE COUNTY,NHS DELAWARE COUNTY,ID,620 GERMANTOWN PIKE,,,LAFAYETTE HILL,PA,19444-1810
100001735,NHS PHILADELPHIA,NHS PHILADELPHIA,ID,620 GERMANTOWN PIKE,,,LAFAYETTE HILL,PA,19444-1810
102231690,TRI-VALLEY CARE INC,TRI-VALLEY CARE INC,ID,620 GERMANTOWN PIKE,,,LAFAYETTE HILL,PA,19444-1810
102066149,AARONS ACRES,AARONS ACRES,ID,1861 CHARTER LN STE 114,,,LANCASTER,PA,17601-6736
100924640,ACCESSING INDEPENDENCE,ACESSING INDEPENDENCE,ID,PO BOX 10485,,,LANCASTER,PA,17605-0485
101980741,AGAPE CARE INC,AGAPE CARE INC,ID,1865 LINCOLN HWY E,,,LANCASTER,PA,17602-3357
102731123,COMMUNITY INVOLVEMENT SERVICES,"BLAKE, KENNETH",ID,215 GREENLAND DR,,,LANCASTER,PA,17602-3381
100757720,COUNTY OF LANCASTER,COUNTY OF LANCASTER,ID,150 N QUEEN ST,SUITE 710,,LANCASTER,PA,17603-3562
102771076,FAITHFUL AT HOME CARE LLC,FAITHFUL AT HOME CARE LLC,ID,888 MILLERSVILLE RD,,,LANCASTER,PA,17603-6154
102479363,FTJOL LLC,FTJOL LLC,ID,1532 LITITZ PIKE,,,LANCASTER,PA,17601-6506
100001181,OCCUPATIONAL DEVELOPMENT CENTER INC,OCCUPATIONAL DEVELOPMENT CENTER INC,ID,640 MARTHA AVE,,,LANCASTER,PA,17601-4594
100001726,PAI CORPORATION,PAI CORPORATION,Both,1810 ROHRERSTOWN RD,,,LANCASTER,PA,17601-2322
001877247,RED ROSE TRANSIT AUTHORITY,RED ROSE TRANSIT AUTHORITY,ID,45 ERICK RD,,,LANCASTER,PA,17601-3111
100680965,UNITED DISABILITIES SERVICES,UNITED DISABILITIES SERVICES,Autism,PO BOX 10485,1901 OLDE HOMESTEAD LANE,,LANCASTER,PA,17605-0485
100001996,PENNDEL MENTAL HEALTH CENTER INC,PENNDEL MENTAL HEALTH CENTER INC,ID,2005 CABOT BLVD W,STE 100,,LANGHORNE,PA,19047-1885
102692651,SDS CARES INC,SDS CARES INC,ID,116 N BELLEVUE AVE STE 204,,,LANGHORNE,PA,19047-2129
100002278,WOODS SERVICES INC,WOODS SERVICES,ID,40 MARTIN GROSS DR,,,LANGHORNE,PA,19047-1616
102946225,BEHAVIORAL PEDIATRICS & ABA THERAPY ASSO,BEHAVIORAL PEDIATRICS & ABA THERAPY ASSOCIATES,ID,1152 SUMNEYTOWN PIKE,,,LANSDALE,PA,19446-4711
102256789,LANSDALE HOSPITAL CORPORATION,LANSDALE HOSPITAL CORPORATION,ID,100 MEDICAL CAMPUS DR,,,LANSDALE,PA,19446-1259
101555193,PRECISE POINT INC,PRECISE POINT INC,ID,861 W MAIN ST,,,LANSDALE,PA,19446-2015
102434290,CCND CORPORATION,SYNERGY HOME CARE/CCND CORPORATION,ID,1571 SUMNEYTOWN PIKE,,,LANSDALE,PA,19446-4854
102273190,MOTIVATIONS EDUC & CONSULTATION ASSOCS,MOTIVATIONS EDUCATION & CONSULTATION ASSOCS INC,ID,59 PRICE AVE,,,LANSDOWNE,PA,19050-2018
102435663,ADVANCED LIVING OPTIONS,ADVANCED LIVING OPTIONS,ID,2108 TARTAN CT,,,LATROBE,PA,15650-9555
100004586,BROTHERS OF CHARITY INC,BROTHERS OF CHARITY INC,ID,BROS OF CHARITY,7720 DOE LANE,,LAVEROCK,PA,19038 -
100003687,DEVELOPMENTAL & DISABILITY SERVICES OF L,DEVELOPMENTAL & DISABILITY SERVS OF LEBANON VALLEY,ID,1126 WALNUT ST,,,LEBANON,PA,17042-5939
100004862,LEBANON COUNTY COMMISSIONERS,LEBANON COUNTY COMMISSIONERS,ID,220 E LEHMAN ST,,,LEBANON,PA,17046-3930
100001280,QUALITY EMPLOYMENT SERVICES AND TRAINING,QUALITY EMPLOYMENT SERVICES & TRAINING INC,Both,704 METRO DR,,,LEBANON,PA,17042-9138
100774319,PALMERTON HOSPITAL,PALMERTON HOSPITAL,ID,211 N 12TH STREET,,,LEHIGHTON,PA,18235-1138
102336709,PEACE OF HEART IN-HOME CARE LLC,PEACE OF HEART IN-HOME CARE LLC,Autism,199 S 1ST ST,,,LEHIGHTON,PA,18235-2066
102731141,CORNERSTONE AGENCY OF PA INC,CORNERSTONE AGENCY OF PA INC,Both,1013 MUMMA RD STE 301,,,LEMOYNE,PA,17043-1144
100276399,LANCASTER GENERATIONS,LANCASTER GENERATIONS,ID,2404 ANITA CT,,,LEOLA,PA,17540-1105
102789562,TLC NURSING SERVICES,TLC NURSING SERVICES,ID,41 SHADETREE LN,,,LEVITTOWN,PA,19055-2201
001737139,J & DS INC,J & DS INC,ID,35 SCHOOL BUS LN,,,LEWISTOWN,PA,17044-8315
100000961,MIFFLIN-JUNIATA SPECIAL NEEDS CENTER INC,MIFFLIN-JUNIATA SPECIAL NEEDS CENTER INC,ID,31 S DORCAS ST STE A,,,LEWISTOWN,PA,17044-2110
101364843,PRN MEDICAL STAFFING OF LEWISTOWN INC,PRN MEDICAL STAFFING OF LEWISTOWN INC,ID,7 ORT VALLEY RD STE B,,,LEWISTOWN,PA,17044-1336
100006956,DANIEL D PEARCE,"PEARCE, DANIEL",ID,301 W CHURCH ST,,,LIGONIER,PA,15658-1107
001913853,PRN MEDICAL STAFFING INC,PRN MEDICAL STAFFING INC,ID,318 YOUNGS RD,,,LINDEN,PA,17744-9038
100000694,FRIENDSHIP COMMUNITY,FRIENDSHIP COMMUNITY,ID,1149 E OREGON RD,,,LITITZ,PA,17543-8366
000838351,LANDIS HOMES,LANDIS HOMES,ID,1001 E OREGON RD,,,LITITZ,PA,17543-9205
102642355,THERESA SHANK,"SHANK, THERESA",Autism,829 WOODFIELD DR,,,LITITZ,PA,17543-8377
102768114,SUPPORTS COORDINATION GROUP LLC,SUPPORTS COORDINATION GROUP LLC,Autism,27 KINGS POINTE,,,LITITZ,PA,17543-9234
102568258,FOCUS BEHAVIORAL HEALTH INC,FOCUS BEHAVIORAL HEALTH INC,Both,319 E KING ST,,,LITTLESTOWN,PA,17340-1617
100000442,CLINTON COUNTY COMMUNITY CONNECTIONS INC,CLINTON COUNTY COMMUNITY CONNECTIONS INC,ID,10 N WASHINGTON ST STE A,,,LOCK HAVEN,PA,17745-3550
102096658,TRANSDEV SERVICES INC,ACCESS TRANSPORTATION SYSTEMS,ID,720 E BUTTERFIELD RD,,,LOMBARD,IL,60148-5661
102062050,KELLER WHEEL CHAIR LIFTS,KELLER WHEEL CHAIR LIFTS,ID,197 MAIN STREET,,,LUZERNE,PA,18709 -
100000030,PORTRAITS OF LIFE ADULT DAY SVCS INC,PORTRAITS OF LIFE ADULT DAY SERVICES INC,ID,419 MARKET ST,,,LYKENS,PA,17048-1316
102889791,HELPING HANDS COMMUNITY SERVICES,HELPING HANDS COMMUNITY SERVICES,Autism,6975 LINCOLN DR,,,MACUNGIE,PA,18062-9596
100005743,ALTNERATIVES IN COMMUNITY TREATMENT INC,ALTERNATIVES IN COMMUNITY TREATMENT INC,ID,23 MYSTIC LN STE A,,,MALVERN,PA,19355-1942
102800946,COMMUNITY LIFE OPTIONS INC,COMMUNITY LIFE OPTIONS INC,ID,332 S MAIN ST,,,MANSFIELD,PA,16933-1524
100002008,PARTNERS IN PROGRESS INC,PARTNERS IN PROGRESS,Both,332 S MAIN ST,,,MANSFIELD,PA,16933-1524
103021150,CARES OF WESTERN PA INC,CARES OF WESTERN PA,ID,225 CROWE AVE,PO BOX 278,,MARS,PA,16046-3405
001941320,SPINA BIFIDA ASSOCIATION OF WESTERN PA,SPINA BIFIDA ASSOC OF WESTERN PA,ID,1158 DUTILH RD,,,MARS,PA,16046-9448
102579529,GERALD R PECK TRANSPORTATION INC,GERALD R PECK TRANSPORTATION INC,ID,229 RESERVOIR RD,,,MC CONNELLSBURG,PA,17233-8115
102876532,NEW CONCEPTS INC,NEW CONCEPTS INC,ID,PO BOX 167,,,MC EWENSVILLE,PA,17749-0167
100771148,ALLEGHENY CHILDRENS INITIATIVE INC,ALLEGHENY CHILDRENS INITIATIVE INC,ID,250 CLEVER RD,,,MC KEES ROCKS,PA,15136-1088
100002394,CITIZEN CARE INC,CITIZEN CARE INC,ID,250 CLEVER RD,,,MC KEES ROCKS,PA,15136-1088
100000980,MON YOUGH COMMUNITY SERVICES INC,MON YOUGH COMMUNITY SERVICES INC,ID,500 WALNUT ST,FL 3,,MCKEESPORT,PA,15132-2801
101545034,CHILD TO FAMILY CONNECTIONS INC,CHILD TO FAMILY CONNECTIONS INC,ID,13388 DUNHAM RD,,,MEADVILLE,PA,16335-8342
100001118,CRAWFORD COUNTY MENTAL HEALTH AWARENESS,CRAWFORD COUNTY MENTAL HEALTH AWARENESS PROGRAM IN,ID,944 LIBERTY ST,,,MEADVILLE,PA,16335-3259
100001430,SUPPORTS INC,SUPPORTS INC,ID,16269 CONNEAUT LAKE RD,SUITE 101,,MEADVILLE,PA,16335-3887
100003408,THE ARC OF CRAWFORD COUNTY INC,THE ARC OF CRAWFORD COUNTY INC,ID,222 CHESTNUT ST,,,MEADVILLE,PA,16335-3407
100001628,TOUCH STONE SOLUTIONS INC,TOUCH STONE SOLUTIONS INC,Both,PO BOX 766,,,MEADVILLE,PA,16335-6766
100002269,UNITED COMMUNITY INDEPENDENCE PROGRAMS I,UNITED COMMUNITY INDEPENDENCE PROGRAMS INC,ID,17999 CUSSEWAGO RD,PO BOX 437,,MEADVILLE,PA,16335-6254
100002410,VALLONIA INDUSTRIES,VALLONIA INDUSTRIES,ID,78 W POPLAR ST,,,MEADVILLE,PA,16335-3535
102731197,MESSIAH LIFEWAYS COMMUNITY SUPPORT SERVI,MESSIAH LIFEWAYS COMMUNITY SUPPORT SERVICES,ID,100 MOUNT ALLEN DR,,,MECHANICSBURG,PA,17055-6171
100006464,COUNTY OF DEL,COUNTY OF DEL,ID,201 W STATE ST,,,MEDIA,PA,19063-3112
100002124,ELWYN,ELWYN,ID,111 ELWYN RD,,,MEDIA,PA,19063-4622
000994104,HOME HEALTH SPECIALISTS INC,HOME HEALTH SPECIALISTS INC,ID,349 W STATE ST,,,MEDIA,PA,19063-2688
101203922,VALUES INTO ACTION,VALUES INTO ACTION INC,ID,14 S JACKSON ST,,,MEDIA,PA,19063-3322
100777240,EFCC ACQUISITION CORP,EFCC ACQUISITION CORP,ID,115 BROADHOLLOW RD,STE 275,,MELVILLE,NY,11747-4990
100003471,PHILIP JAMES ERDOS,"ERDOS, PHILIP",ID,7875 LAMOR RD,,,MERCER,PA,16137-2215
100007677,MERCER CO BEHAVIORAL HLTH COM INC,MERCER CO BEHAVIORAL HLTH COM INC,Both,8406 SHARON MERCER RD,,,MERCER,PA,16137-3138
102810020,EAGLE VALLEY PERSONAL CARE HOME INC,EAGLE VALLEY PERSONAL CARE HOME INC,ID,500 FRONT ST,,,MILESBURG,PA,16853 -
100002886,PIKE COUNTY DEVELOPMENTAL CENTER INC,PIKE COUNTY DEVELOPMENTAL CENTER INC,ID,107 W ANN ST,,,MILFORD,PA,18337-1429
101265700,COMPASS R CARE LTD,COMPASS ROSE CARE LTD,ID,507 POTTSVILLE ST,,,MINERSVILLE,PA,17954-1823
102766423,LIONESS COMMUNITY CARE CORP,LIONESS COMMUNITY CARE CORP,Both,435 DONNER AVE,,,MONESSEN,PA,15062-1173
100001931,SECURE REHABILITATION AND VOCATIONAL ENT,SECURE REHABILITATION AND VOCATIONAL ENTERPRISES,ID,PO BOX 93,,,MONROETON,PA,18832-0093
102850509,CDR INVESTMENTS LLC,CDR INVESTMENTS LLC,ID,515 SUNNYFIELD DR,,,MONROEVILLE,PA,15146-1612
102298911,CRM HABILITATIVE SERVICES INC,CRM HABILITATIVE SERVICES INC,ID,2526 MONROEVILLE BLVD STE,202,,MONROEVILLE,PA,15146-2358
103001040,PEACE OF MIND LIVING HABILITATIVE SERVIC,PEACE OF MIND LIVING HABILITATIVE SERVICES LLC,ID,250 YOUNG DR,,,MONROEVILLE,PA,15146-4653
102001663,OMNI HEALTH SERVICES INC,OMNI HEALTH SERVICES INC,Autism,595 BETHLEHEM PIKE STE 106,,,MONTGOMERYVILLE,PA,18936-9710
100002044,BAYADA HOME HEALTH CARE INC,BAYADA HOME HEALTH CARE INC,ID,101 EXECUTIVE DR,,,MOORESTOWN,NJ,08057-4236
102412542,SONES TRANSPORT INC,SONES TRANSPORT INC,ID,2558 DEER CREEK RD,PO BOX 123,,MORRISDALE,PA,16858-0123
100002680,DELAWARE COUNTY INTERMEDIATE UNIT,DELAWARE COUNTY INTERMEDIATE UNIT,ID,200 YALE AVE,,,MORTON,PA,19070-1918
102113285,FAMILY HOME MEDICAL SUPPORT,FAMILY HOME MEDICAL SUPPORT SERVICES,ID,50 S OAK ST,,,MOUNT CARMEL,PA,17851-2156
102467086,SENTRY SERVICES AND SUPPORTS,SENTRY SERVICES AND SUPPORTS,ID,330 S MAPLE ST,,,MOUNT CARMEL,PA,17851-2029
102117856,HOFFMAN CARE ASSOCIATES INC,HOFFMAN CARE ASSOCIATES INC,ID,1315 DONEGAL SPRINGS RD,,,MOUNT JOY,PA,17552-9031
100001646,IFC SERVICES INC,IFC SERVICES INC,ID,14680 IROQUOIS CT,,,MOUNT UNION,PA,17066 -
102940769,ABLE-SERVICES INC,ABLE-SERVICES INC,ID,4880 N SHERMAN STREET EXT,,,MOUNT WOLF,PA,17347-9637
102692348,ROBERT F HULVEY,ROBERT F HULVEY,Autism,A BROADER SPECTRUM,PO BOX 292,,MOUNTAINHOME,PA,18342-0292
100003560,COMMUNITY SERVICES GROUP INC,COMMUNITY SERVICES GROUP INC,ID,320 HIGHLAND DR,PO BOX 597,,MOUNTVILLE,PA,17554-1232
102186791,CRITICARE LANCASTER INC,CRITICARE LANCASTER INC,ID,3710 HEMPLAND RD STE 2,,,MOUNTVILLE,PA,17554-1547
100772000,PHILHAVEN,PHILHAVEN,ID,283 S BUTLER ROAD,,,MT GRETNA,PA,17064-0550
102390777,SECOND HAVEN SERVICES FOR YOUTH INC,SECOND HAVEN SERVICES FOR YOUTH INC,ID,PO BOX 329,,,MT POCONO,PA,18344-0329
102924451,ABILITIES BEHAVIORAL HEALTH LLC,ABILITIES BEHAVIORAL HEALTH LLC,Both,63 W RIDGE ST,,,NANTICOKE,PA,18634-2714
102874340,NEXT STEP CARE,NEXT STEP CARE,ID,531 LORAINE RD,,,NANTY GLO,PA,15943-3525
100003702,MICHAEL BUONOMO,"BUONOMO, MICHAEL",ID,5781 GLEN OAKS DR,,,NARVON,PA,17555-9450
102440841,BRASS CASTLE HUMAN SERVICES INC,BRASS CASTLE HUMAN SERVICES INC,ID,122 S MAIN ST,,,NAZARETH,PA,18064-2051
102835997,VALLEY ADVANTAGES LLC,VALLEY ADVANTAGES LLC,ID,206 SOUTH ST,,,NEW BETHLEHEM,PA,16242-1240
100000943,MCGUIRE MEMORIAL,MCGUIRE MEMORIAL,ID,2119 MERCER RD,,,NEW BRIGHTON,PA,15066-3437
100007766,ROMER-QUIRIN CONSTANCE MARIE,"ROMER-QUIRIN, CONSTANCE",ID,39 IRON HILL RD STE 3,IRONWOOD BUSINESS CTR,,NEW BRITAIN,PA,18901 -
101634869,ALLIED COORDINATED TRANSPORTATION SERVIC,ALLIED COORDINATED TRANSPORTATION SERVICES INC,ID,241 W GRANT ST STE A,,,NEW CASTLE,PA,16101-2212
100756268,HUMAN SERVICE CENTER,HUMAN SERVICES CENTER,ID,130 W NORTH ST,,,NEW CASTLE,PA,16101-3979
100001056,LARK ENTERPRISES INC,LARK ENTERPRISES INC,ID,315 GREEN RIDGE RD,STE A1,,NEW CASTLE,PA,16105-6145
100001083,LAWRENCE COUNTY ASSOCIATION FOR RESPONSI,LAWRENCE COUNTY ASSOCIATION FOR RESPONSIBLE CARE,ID,101 S MERCER ST,STE 306,LAWRENCE COUNTY,NEW CASTLE,PA,16101-3849
102523480,AUTISM DIAGNOSTIC EVALUATIONS RESOURCES,AUTISM DIAGNOSTIC EVALUATIONS RESOURCES SERVICES,Autism,276 GRAYLYN CREST DR,,,NEW COLUMBIA,PA,17856-9418
102672828,BENEVOLENT HEART ASSISTED LIVING,BENEVOLENT HEART ASSISTED LIVING,ID,1037 SWARTHMORE RD,,,NEW CUMBERLAND,PA,17070-1730
102574587,L PHIPPS LLC,"PHIPPS, LISA",ID,1387 LAFAYETTE RD,,,NEW ENTERPRISE,PA,16664-9413
100004165,LIGHT HOUSE REHABILITATION CENTER,LIGHTHOUSE REHABILITATION CENTER,ID,144 ORLAN RD,,,NEW HOLLAND,PA,17557 -
102779172,SANDRA LEE MCDADE,"MCDADE, SANDRA",ID,5081 SARDIS RD,,,NEW KENSINGTON,PA,15068-9243
101642646,PRINCE MARKS PLACE,PRINCE MARKS PLACE,ID,376 PINECREST DR,,,NEW KENSINGTON,PA,15068-2330
100005378,HART CENTER,HART CENTER,ID,450 E GOLDEN LN,,,NEW OXFORD,PA,17350-9351
102577794,PENN RESIDENTIAL INC,PENN RESIDENTIAL INC,ID,PO BOX C,,,NEW STANTON,PA,15672-0417
102478876,GSK APEX ENTERPRISE,GSK APEX ENTERPRISES LLC,ID,403 DEER PATH LN,,,NEW WILMINGTON,PA,16142-3505
103050081,HARRISBURG HOME HEALTH HOLDINGS LLC,HARRISBURG HOME HEALTH HOLDINGS LLC,ID,1056 5TH AVE,,,NEW YORK,NY,10028-0112
101345285,CHIMES METRO INC,CHIMES METRO INC,ID,514 INTERCHANGE BLVD,,,NEWARK,DE,19711-3557
102657536,CARESENSE HEALTH,CARESENSE HEALTH,ID,12 PENNS TRL,,,NEWTOWN,PA,18940-1892
102266480,POTENTIAL INC,POTENTIAL INC,Autism,170 PHEASANT RUN STE 100,,,NEWTOWN,PA,18940-1821
001832512,HEMPFIELD BEHAVIORAL HEALTH INC,HEMPFIELD BEHAVIORAL HEALTH INC,ID,3581 RITNER HWY,,,NEWVILLE,PA,17241-9120
102810002,ACCURATE CARE SERVICES LLC,ACCURATE CARE SERVICES LLC,Autism,201 DEKALB ST,,,NORRISTOWN,PA,19401-4903
100000498,DEVELOPMENTAL ENTERPRISES CORPORATION,DEVELOPMENTAL ENTERPRISES CORPORATION,ID,333 E AIRY ST,,,NORRISTOWN,PA,19401-5039
102431270,KAREN M. WHITTON,DO MOORE LLC,ID,421 ALEXANDRA DR,,,NORRISTOWN,PA,19403-1301
100007630,DEVELOPMENTAL FITNESS COMPANY,DEVELOPMENTAL FITNESS COMPANY,ID,PO BOX 1025,,,NORTH WALES,PA,19454-0025
101158836,MELANIE J SEVCIK,"SEVCIK, MELANIE",Both,329 CROFT RD,,,NORTH WALES,PA,19454-2423
102764509,HEALTH RIDE PLUS INC,HEALTH RIDE PLUS INC,ID,406 MAGNOLIA ST,,,NORTHERN CAMBRIA,PA,15714-1007
100680787,LJL TRUCKING INC,LJL TRUCKING INC,ID,1311 PHILADELPHIA AVE,,,NORTHERN CAMBRIA,PA,15714-1181
102453151,QUALITY LIFE SERVICES INC,QUALITY LIFE SERVICES INC,ID,PO BOX 396,1902 BIGLER AVE,,NORTHERN CAMBRIA,PA,15714-0396
102621945,SUPERIOR HUMAN SERVICES INC,SUPERIOR HUMAN SERVICES INC,ID,4200 CRAWFORD AVE,STE 300,,NORTHERN CAMBRIA,PA,15714-1370
100002474,SUN COM INDUSTRIES,SUNCOM INDUSTRIES INC,ID,128 WATER ST,,,NORTHUMBERLAND,PA,17857-1907
102250275,HOME NOT ALONE CAREGIVER SERVICES INC,HOME NOT ALONE CAREGIVER SERVICES INC,ID,527 CEDAR WAY,SUITE 102,,OAKMONT,PA,15139-2068
102312663,PRADER WILLI HOMES OF OCONOMOWOC LLC,PRADER WILLI HOMES OF OCONOMOWOC LLC,ID,1746 EXECUTIVE DR,,,OCONOMOWOC,WI,53066-4830
100001637,FAMILY SERVICE & CHILDRENS AID SOCIETY,FAMILY SERVICE & CHILDRENS AID SOCIETY OF VENANGO,ID,716 E 2ND ST,,,OIL CITY,PA,16301-2330
100004497,INTERIM HEALTH CARE SRVCS INC,INTERIM HEALTH CARE SRVCS INC,ID,200 3RD ST FL 1,,,OLYPHANT,PA,18447-1017
102389391,PATRICIA H NCUBE,"NCUBE, PATRICIA",ID,2004 PAPER MILL RD,,,ORELAND,PA,19075-2540
102298850,LISA ANN LEE,"LEE, LISA",ID,102 AMBER DR,,,OXFORD,PA,19363-4327
102245981,DOORS TO SUCCESS INC,DOORS TO SUCCESS INC,ID,145 N THISTLEDOWN DR,,,PALMYRA,PA,17078-9030
100003542,ROYER-GREAVES SCHOOL FOR BLIND,ROYER GREAVES SCHOOL FOR BLIND,ID,118 S VALLEY RD,,,PAOLI,PA,19301-1444
101668867,BRETS ADVENTURE INC,BRETS ADVENTURE INC,ID,1015 CHERRY ST,,,PAXINOS,PA,17860-7070
102683661,A HOME HEALTH CARE LLC,A HOME HEALTH CARE LLC,ID,2551 PEACHTREE DR,,,PERKASIE,PA,18944-5439
102266533,A-UNIMAID SERVICES INC,A-UNIMAID SERVICES INC,ID,PO BOX 14433,,,PHILADELPHIA,PA,19115-0433
102985789,ABLE MIND AND BODY HOME CARE AGENCY,ABLE MIND AND BODY HOME CARE AGENCY,ID,1508 W GRANGE AVE,,,PHILADELPHIA,PA,19141-2512
101397666,ACT HOME HEALTH SERVICES INC,ACT HOME HEALTH SERVICES INC,ID,1121 S 11TH ST,,,PHILADELPHIA,PA,19147-4601
102447341,AMERICAS HOME HEALTH SERVICES LLC,AMERICAS HOME HEALTH SERVICES LLC,ID,9622 BUSTLETON AVE STE 3,,,PHILADELPHIA,PA,19115-3100
102657572,AMITY CARE,AMITY CARE,Both,4803 WOODLAND AVE,,,PHILADELPHIA,PA,19143-4433
100001860,ASSOCIATION FOR INDEPENDENT GROWTH INC,ASSOCIATION FOR INDEPENDENT GROWTH INC,ID,4700 WISSAHICKON AVE,STE 100,,PHILADELPHIA,PA,19144-4248
102779163,CAREY W BAILEY,"BAILEY, CAREY",ID,4034 BARING ST FL 1,,,PHILADELPHIA,PA,19104-2268
102417914,BEHAVIORAL HEALTH SOLUTIONS INC.,BEHAVIORAL HEALTH SOLUTIONS INC.,ID,6313 HASBROOK AVE,,,PHILADELPHIA,PA,19111-5603
102030010,BINTY NURSES INC,BINTY NURSES INC,ID,747 N 63RD ST,,,PHILADELPHIA,PA,19151-3804
102220964,BOAZ RUTH INC,BOAZ RUTH INC,Both,244 HIGBEE ST,,,PHILADELPHIA,PA,19111-5906
102646004,CAROUSEL CONNECTIONS LLC,CAROUSEL CONNECTIONS LLC,ID,313 S 12TH ST,APT 1,,PHILADELPHIA,PA,19107-5935
101150471,CAS HOME HEALTH CARE INC,CAS HOME HEALTH CARE INC,Autism,7308 CASTOR AVE,,,PHILADELPHIA,PA,19152-4205
102005321,CASMIR CARE SERVICES INC,CASMIR CARE SERVICES INC,ID,4950 PARKSIDE AVE STE 400,,,PHILADELPHIA,PA,19131-4700
100770991,CHILDRENS HOSPITAL OF PHILADELPHIA,CHILDRENS HOSPITAL OF PHILADELPHIA,ID,100 E PENN SQ,FL 6,,PHILADELPHIA,PA,19107-3323
100000193,CITIZENS ACTING TOGETHER CAN HELP INC,CITIZENS ACTING TOGETHER CAN HELP INC,ID,1409 LOMBARD ST,,,PHILADELPHIA,PA,19146-1656
100000406,CO-MHAR INC,CO-MHAR INC,Both,100 W LEHIGH AVE,,,PHILADELPHIA,PA,19133-4097
102832734,COMFORT FOR ALL,COMFORT FOR ALL,ID,6628 WOODLAND AVE,,,PHILADELPHIA,PA,19142-2223
100007757,COMMUNITY CARE CTR OF THE NORTHEAST,COMMUNITY CARE CENTER OF NORTHEAST,ID,2417 WELSH RD STE 202,,,PHILADELPHIA,PA,19114-2210
102998858,COMMUNITY EXPLORERS DAY SERVICES INC,COMMUNITY EXPLORERS DAY SERVICES INC,ID,4700 WISSAHICKON AVE # 102,5,,PHILADELPHIA,PA,19144-4248
100001163,COMMUNITY INTEGRATED SERVICES,COMMUNITY INTEGRATED SERVICES,Both,441 N 5TH ST,,,PHILADELPHIA,PA,19123-4008
102748256,COMMUNITY INTEGRATED SERVICES,COMMUNITY INTEGRATED SERVICES,ID,520 N DELAWARE AVE,SUITE 600,,PHILADELPHIA,PA,19123 -
102832743,CONNECT A CARE NETWORK,CONNECT A CARE NETWORK,ID,4919 KNOX ST,,,PHILADELPHIA,PA,19144-3617
102868577,DEVELOPER OF OPTIMISM SUPPORT LLC,DEVELOPER OF OPTIMISM SUPPORT LLC,Autism,6225 COTTAGE ST,,,PHILADELPHIA,PA,19135-3213
101796277,DIVERSIFIED SUPPORTIVE SERVICES LLC,DIVERSIFIED SUPPORTIVE SERVICES LLC,Both,1714 MEMPHIS ST,STE C-8,,PHILADELPHIA,PA,19125-2700
100000550,EASTER SEALS OF SOUTHEASTERN PENNSYLVANI,EASTER SEALS OF SOUTHEASTERN PA,ID,3975 CONSHOHOCKEN AVE,,,PHILADELPHIA,PA,19131-5426
102663023,EASTWICK FAMILY SERVICES LLC,EASTWICK FAMILY SERVICES LLC,ID,3801 MARKET ST STE 204,,,PHILADELPHIA,PA,19104-3153
102888435,EDWARDS HOPE,EDWARDS HOPE CORPORATION,ID,6405 N FAIRHILL ST,,,PHILADELPHIA,PA,19126-3848
102665494,EXACT CARE LLC,EXACT CARE LLC,ID,6290 KINDRED STREET,,,PHILADELPHIA,PA,19149-2805
100000649,FAMILY SUPPORT CIRCLE,FAMILY SUPPORT CIRCLE,ID,2059A E CHELTEN AVE,,,PHILADELPHIA,PA,19138 -
101906593,FLAT IRON FITNESS LLC,FLAT IRON FITNESS LLC,ID,220 GEIGER RD,,,PHILADELPHIA,PA,19115 -
102220955,FLAT IRON SUPPORTS LLC,FLAT IRON SUPPORTS LLC,ID,220 GEIGER RD,,,PHILADELPHIA,PA,19115-1030
100918105,GOLDEN HEALTH SERVICES INC,GOLDEN HEALTH SERVICES INC,ID,2100 SCATTERGOOD STREET,,,PHILADELPHIA,PA,19124-2012
102301015,HEALTHCARE STAT HOMECARE INC,HEALTHCARE STAT HOMECARE INC,ID,9539 BUSTLETON AVE,,,PHILADELPHIA,PA,19115-3847
102687750,HELPING HAND HOME HEALTH CARE AGENCY INC,HELPING HAND HOME HEALTH CARE AGENCY INC,ID,200 GEIGER RD,,,PHILADELPHIA,PA,19115-1008
100007701,HOME CARE ASSOCIATES OF PHILADELPHIA,HOME CARE ASSOCIATES OF PHILADELPHIA,ID,1500 WALNUT ST STE 1000,,,PHILADELPHIA,PA,19102-3512
100003239,HORIZON HOUSE INC,HORIZON HOUSE INC,ID,120 S 30TH ST,,,PHILADELPHIA,PA,19104-3403
001463956,IN HOME PROGRAM INC,IN HOME PROGRAM INC,Both,743 N 24TH ST,,,PHILADELPHIA,PA,19130-2539
100749405,INGLIS HOUSE,INGLIS HOUSE,ID,2600 BELMONT AVE,,,PHILADELPHIA,PA,19131-2713
100000836,INTERCOMMUNITY ACTION INCORPORATED,INTERCOMMUNITY ACTION INCORPORATED,ID,6012 RIDGE AVE,,,PHILADELPHIA,PA,19128-1643
102748837,JEVS BEHAVIORAL HEALTH AND INTELLECTUAL,JEVS BEHAVIORAL HEALTH AND INTELLECTUAL DISABILITI,ID,9350 ASHTON RD RM 201,,,PHILADELPHIA,PA,19114-7402
100003041,JEVS HUMAN SERVICES,JEVS HUMAN SERVICES,ID,1845 WALNUT ST FL 7,,,PHILADELPHIA,PA,19103-4713
100001000,KENCCID CORP,KENSINGTON CMTY CORP FOR INDIVIDUAL DIGNITY,ID,9350 ASHTON RD,STE 202,,PHILADELPHIA,PA,19114-3400
102571656,KINDRED HEARTS LLP,KINDRED HEARTS LLP,ID,759 S 15TH ST # 1A,,,PHILADELPHIA,PA,19146-2238
102690441,KING FAMILY ENTERPRISE LLC,KING FAMILY ENTERPRISE LLC,ID,4922 N 9TH ST,,,PHILADELPHIA,PA,19141-3926
102566315,LAYLAS HOUSE,LAYLAS HOUSE,ID,5340 WAKEFIELD ST,,,PHILADELPHIA,PA,19144-2312
102604149,MARYJO HOME HEALTH CARE LLC,MARYJO HOME HEALTH CARE LLC,ID,5010 COTTAGE ST,,,PHILADELPHIA,PA,19124-2110
100003417,NORTHEAST COMMUNITY CENTER FOR MENTAL,NORTHEAST COMMUNITY CENTER FOR MENTAL,ID,ROOSEVELT BLVD AND ADAMS A,ORLEANS BUILDING PC,,PHILADELPHIA,PA,19124 -
100007710,NURSING HOME CARE MANAGEMENT INC,NURSING HOME CARE MANAGEMENT INC,ID,10890 BUSTLETON AVE,STE 211,,PHILADELPHIA,PA,19116-3313
102254416,MARY KAREN OGARA,"OGARA, MARY",ID,4240 CHIPPENDALE ST,,,PHILADELPHIA,PA,19136-3604
102658201,OPEN SYSTEMS HEALTHCARE INC,OPEN SYSTEMS HEALTHCARE INC,Both,1818 MARKET ST STE 2510,,,PHILADELPHIA,PA,19103-3650
102923721,OUTSTANDING HOMECARE SOLUTIONS LLC,OUTSTANDING HOMECARE SOLUTIONS LLC,ID,7727 FRANKFORD AVE,,,PHILADELPHIA,PA,19136-3133
100001207,OVERBROOK FRIEDLANDER PROGMS,OVERBROOK FRIEDLANDER PROGMS,ID,6333 MALVERN AVE,,,PHILADELPHIA,PA,19151-2529
100943921,PARTNERSHIP FOR COMMUNITY SUPPORTS,PARTNERSHIP FOR COMMUNITY SUPPORTS,ID,9360 ASHTON ROAD,,,PHILADELPHIA,PA,19114 -
102662993,PASSIONATE CARE LLC,PASSIONATE CARE LLC,ID,1 INTERNATIONAL PLZ STE 55,0,,PHILADELPHIA,PA,19113-1528
100001584,PATH PEOPLE ACTING TO HELP INC,PATH PEOPLE ACTING TO HELP INC,ID,8220 CASTOR AVE,,,PHILADELPHIA,PA,19152-2729
100002509,PROGRAMS EMPLOYING PEOPLE,PROGRAMS EMPLOYING PEOPLE,ID,1200 S BROAD ST,,,PHILADELPHIA,PA,19146-3119
100001664,PUBLIC HEALTH MANAGEMENT CORPORATION,PUBLIC HEALTH MANAGEMENT CORPORATION,ID,1500 MARKET ST,,,PHILADELPHIA,PA,19102-2100
100945550,QUALITY PROGRESSIONS,QUALITY PROGRESSIONS,ID,1339 CHESTNUT ST,STE 700,,PHILADELPHIA,PA,19107-3519
102549501,RELIANCE FAMILY CARE SERVICES INC,RELIANCE FAMILY CARE SERVICES INC,ID,2202 S BROAD ST,,,PHILADELPHIA,PA,19145-3923
100001708,RESOURCES FOR HUMAN DEVELOPMENT INC,RESOURCES FOR HUMAN DEVELOPMENT INC,Both,4700 WISSAHICKON AVE,STE 126,,PHILADELPHIA,PA,19144-4248
102800919,RITECHOICE FAMILY SERVICES INC,RITECHOICE FAMILY SERVICES INC,ID,7248 ELMWOOD AVE,,,PHILADELPHIA,PA,19142-1533
100720505,ROMED INC,ROMED AMBULANCE,ID,2860 HEDLEY ST,SUITE 101,,PHILADELPHIA,PA,19137-1919
102223877,ROYAL HOMECARE & COMMUNITY SERVICES INC,ROYAL HOME CARE & COMMUNITY SERVICES INC,ID,7270 WOODLAND AVE,,,PHILADELPHIA,PA,19142-1012
102161630,S G ISAACS ENTERPRISES INC,S G ISAACS ENTERPRISES,ID,1310 W ROOSEVELT BLVD,,,PHILADELPHIA,PA,19140-2033
102897318,SAINT JOSEPHS UNIVERSITY,SAINT JOSEPHS UNIVERSITY,ID,5600 CITY AVE,,,PHILADELPHIA,PA,19131-1308
102953382,SERENE SERVICES INC,SERENE SERVICES INC,ID,1045 N LEITHGOW ST,,,PHILADELPHIA,PA,19123-1420
102779145,SHARE & CARE IN-HOME SUPPORT & RESPITE S,SHARE & CARE IN-HOME SUPPORT & RESPITE SERVICE,ID,3122 N HUTCHINSON ST,,,PHILADELPHIA,PA,19133-1824
100001261,SPARC SERVICES,SPARC SERVICES,Both,2350 W WESTMORELAND ST,,,PHILADELPHIA,PA,19140-4718
100001350,SPECIAL PEOPLE IN NORTHEAST INC,SPECIAL PEOPLE IN NORTHEAST INC,ID,10501 DRUMMOND RD,,,PHILADELPHIA,PA,19154-3807
100903935,SPECIAL VACATIONS INC,SPECIAL VACATION,ID,3502 SCOTTS LN # 2121F,,,PHILADELPHIA,PA,19129-1561
102966470,SPECTRUM SPECIFIC SERVICES LLC,SPECTRUM SPECIFIC SERVICES LLC,Autism,924 SHELMINE AVE,,,PHILADELPHIA,PA,19111-3229
100007748,SUPPORTIVE BEHAVIORAL RESOURCES INC,SUPPORTIVE BEHAVIORAL RESOURCES INC,ID,1915 WELSH RD,,,PHILADELPHIA,PA,19115-4659
100778013,TEMPLE UNIVERSITY OF THE COMMONWEALTH,TEMPLE UNIVERSITY OF THE COMMONWEALTH SYSTEM OF HI,ID,PO BOX 827770,,,PHILADELPHIA,PA,19182-7770
102686986,JAN GROUP LLC,THE JAN GROUP LLC,ID,2322 N 26TH ST,,,PHILADELPHIA,PA,19132-4606
102566324,TINDALL RESOURCE GROUP INCORPORATED,TINDALL RESOURCE GROUP INCORPORATED,Autism,2824 COTTMAN AVE,STE 7,,PHILADELPHIA,PA,19149-1400
102994572,UNIFIEDSUPPORT,UNIFIEDSUPPORT,ID,6902 CEDAR PARK AVE,,,PHILADELPHIA,PA,19138-2002
100001510,UNITED CEREBRAL PALSY ASSN OF PHILADELPH,UNITED CEREBRAL PALSY ASSN OF PHILADELPHIA & VICIN,ID,102 E MERMAID LN,,,PHILADELPHIA,PA,19118-3507
100676784,VISITING NURSE GROUP INC,VISITING NURSE GROUP INC,ID,128 W GIRARD AVENUE,,,PHILADELPHIA,PA,19123 -
102258774,ARLENE DENISE WALLACE,"WALLACE, ARLENE",ID,8144 FORREST AVE,,,PHILADELPHIA,PA,19150-2402
100002803,WES HEALTH CENTER INC,WES HEALTH CENTER INC,ID,1315 WINDRIM AVE,,,PHILADELPHIA,PA,19141-2710
100715523,WEST PHILADELPHIA COMMUNITY MENTAL HEALT,WEST PHILADELPHIA COMMUNITY MENTAL HEALTH CONSORTI,ID,3751 ISLAND AVE,STE 303,,PHILADELPHIA,PA,19153-3237
102508554,WORD OF LIFE INTERNATIONAL INC,WORD OF LIFE INTERNATIONAL INC,Both,2104 CEMETERY AVE,PO BOX 5376,,PHILADELPHIA,PA,19142-2003
102632199,COMMUNITY LIFE WORKS,COMMUNITY LIFE WORKS,ID,138 BRIDGE ST,,,PHOENIXVILLE,PA,19460-3448
100001109,M-5 INC,M 5 INC,ID,P O BOX 567,,,PHOENIXVILLE,PA,19460 -
100004639,SALISBURY BEHAVIORAL HEALTH INC,SALISBURY BEHAVIORAL HEALTH INC,Both,23 WALKER AVE,,,PIKESVILLE,MD,21208-4004
100007935,EAGLE SPRINGS PROGRAMS INC,EAGLE SPRINGS PROGRAMS INC,ID,58 EAGLE SPRINGS RD,,,PINE GROVE,PA,17963-8009
102902140,A SECOND WIND OF PITTSBURGH,A SECOND WIND OF PITTSBURGH,ID,7103 TILDEN ST,,,PITTSBURGH,PA,15206-2346
100004728,ACHIEVA SUPPORT,ACHIEVA SUPPORT,Both,711 BINGHAM ST,,,PITTSBURGH,PA,15203-1007
102866320,ALTERNATIVE LIVING CONCEPTS,ALTERNATIVE LIVING CONCEPTS,ID,9311 FRANKSTOWN RD,,,PITTSBURGH,PA,15235-1536
102339836,AUTISM EDUCATION & RESEARCH,AUTISM EDUCATION & RESEARCH,Both,4900 PERRY HWY,STE 200 BLDG 2,,PITTSBURGH,PA,15229-2232
100680670,CARE UNLIMITED INC,CARE UNLIMITED INC,ID,3288 BABCOCK BLVD,,,PITTSBURGH,PA,15237-2839
102789606,CASEY BALL SUPPORTS COORDINATION LLC,CASEY BALL SUPPORTS COORDINATION LLC,Autism,7550 SALTSBURG RD,,,PITTSBURGH,PA,15235-3633
100007078,CENTER FOR HEARING & DEAF SERVICES INC,CENTER FOR HEARING & DEAF SERVICES INC,ID,1945 5TH AVE,,,PITTSBURGH,PA,15219-5547
100002661,COMMUNITY LIVING AND SUPPORT SERVICES IN,COMMUNITY LIVING AND SUPPORT SERVICES INC,ID,1400 S BRADDOCK AVE,,,PITTSBURGH,PA,15218-1264
102207757,DALY CARE ASSOCIATION,DALY CARE ASSOCIATES,ID,1051 PERRY HWY,,,PITTSBURGH,PA,15237-2131
100001771,EASTER SEALS WESTERN AND CENTRAL PENNSYL,EASTER SEAL SOCIETY OF WESTERN PENNSYLVANIA,ID,153 PERRY HWY,,,PITTSBURGH,PA,15229-1801
102893613,EIG SERVICES LLC,EIG SERVICES LLC,ID,761 MONTCLAIR ST,,,PITTSBURGH,PA,15217-2853
100002840,EMMAUS COMMUNITY OF PITTSBURGH,EMMAUS COMMUNITY OF PITTSBURGH,ID,2821 SARAH ST,,,PITTSBURGH,PA,15203-2325
100000630,FAMILY SERVICES OF WESTERN PENNSYLVANIA,FAMILY SERVICES OF WESTERN PENNSYLVANIA,ID,3230 WILLIAM PITT WAY,,,PITTSBURGH,PA,15238-1361
100005387,FAMILYLINKS INC,FAMILYLINKS INC,ID,2644 BANKSVILLE RD,,,PITTSBURGH,PA,15216-2812
102678803,DAWN MARIE FIELD,"FIELD, DAWN",ID,4073 BRANDON RD,,,PITTSBURGH,PA,15212-1505
102731188,GLOBAL ADULT CARE SERVICES LLC,GLOBAL ADULT CARE SERVICES LLC,ID,2013 FORBES AVE,,,PITTSBURGH,PA,15219-5804
100000729,GOODWILL OF SOUTHWESTERN PENNSYLVANIA,GOODWILL OF SOUTHWESTERN PENNSYLVANIA,Both,118 52ND ST,,,PITTSBURGH,PA,15201-2593
102614870,GREATER HORIZONS INC,GREATER HORIZONS,ID,1505 SUMMERDALE ST,,,PITTSBURGH,PA,15204-1130
102814155,HARMONY CARE SERVICES LLC,HARMONY CARE SERVICES LLC,ID,8533 FRANKSTOWN RD,,,PITTSBURGH,PA,15235-1045
100004989,JEWISH FAMILY & CHILDRENS SERVICE,JEWISH FAMILY & CHILDRENS SERVICE,ID,5743 BARTLETT ST,,,PITTSBURGH,PA,15217-1515
100007926,JEWISH RESIDENTIAL SERVICES INC,JEWISH RESIDENTIAL SERVICES INC,ID,4905 5TH AVE,STE 3,,PITTSBURGH,PA,15213-2953
100003050,JUST LIFE INC,JUST LIFE INC,ID,4725 MCKNIGHT RD,STE 102,,PITTSBURGH,PA,15237-3414
100002616,LIFES WORK OF WESTERN PA,LIFES WORK OF WESTERN PA,ID,1323 FORBES AVE,,,PITTSBURGH,PA,15219-4725
100000916,MAINSTAY LIFE SERVICES,MAINSTAY LIFE SERVICES,ID,200 ROESSLER RD,,,PITTSBURGH,PA,15220-1037
102312681,MARTHA FORMAN INC,MARTHA FORMAN INCORPORATED,ID,1344 DAVIS AVE,,,PITTSBURGH,PA,15212-1938
100004254,MERCY LIFE CENTER CORPORATION,MERCY LIFE CENTER CORPORATION,ID,1200 REEDSDALE ST,,,PITTSBURGH,PA,15233-2109
102715747,MICHAEL T WISE,MICHAEL T WISE,ID,146 MARSHALL DR,,,PITTSBURGH,PA,15235-4317
100002590,MILESTONE CENTERS INC,MILESTONE CENTERS INC,ID,600 ROSS AVE,,,PITTSBURGH,PA,15221-2126
100003551,NORTHERN AREA MULTI-SERVICE CENTER OF AL,NORTHERN AREA MULTI-SERVICE CENTER OF ALLEGHENY CO,ID,209 13TH ST,,,PITTSBURGH,PA,15215-2418
101475010,PA CONNECTING COMMUNITIES,PA CONNECTING COMMUNITIES,ID,4401 BUTLER ST,,,PITTSBURGH,PA,15201-3011
102312690,PD HOME CARE ASSOCIATES LLC,PD HOME CARE ASSOCIATES LLC,ID,400 PENN CENTER BLVD,SUITE 100,,PITTSBURGH,PA,15235-5613
102731160,PRAYER AND DELIVERANCE COMMUNITY OPPORTU,PRAYER AND DELIVERANCE COMMUNITY OPPORTUNITIES,ID,8508 BRICELYN ST,,,PITTSBURGH,PA,15221-1031
100003088,PRESSLEY RIDGE SCHOOL,PRESSLEY RIDGE,ID,530 MARSHALL AVE,,,PITTSBURGH,PA,15214-3016
102922457,PROVIDING QUALITY HOME & COMMUNITY CARE,PROVIDING QUALITY HOME & COMMUNITY CARE,ID,2013 HAMPTON ST,,,PITTSBURGH,PA,15218-1848
102418680,RMPC HABILITATIZE,RMPC HABILITATIZE,ID,100 E SWISSVALE AVE FL 2,,,PITTSBURGH,PA,15218-1439
102562657,SEBA ABODE INC,SEBA ABODE INC,ID,300 MOUNT LEBANON BLVD STE,210A,,PITTSBURGH,PA,15234-1561
102727176,SERVICE COORDINATION UNLIMITED INC,SERVICE COORDINATION UNLIMITED INC,Autism,1400 S BRADDOCK AVE,,,PITTSBURGH,PA,15218-1264
102719085,SHAWN MCGILL MSW CONSULTING LLC,SHAWN MCGILL MSW CONSULTING LLC,Both,448 BUTLER ST,,,PITTSBURGH,PA,15223-2170
102289251,SIERRA TRANSPORTATION LLC,SIERRA TRANSPORTATION LLC,ID,3327 W CARSON ST,,,PITTSBURGH,PA,15204-1350
102163080,SOUTHERN HOME CARE SERVICES INC,SOUTHERN HOME CARE SERVICES INC,ID,875 GREENTREE RD,,,PITTSBURGH,PA,15220-3508
100757819,SOUTHWESTERN HUMAN SERVICES,SOUTHWESTERN HUMAN SERVICES,Autism,110 FORT COUCH RD,FL 2,,PITTSBURGH,PA,15241-1030
100001341,SOUTHWINDS INC,SOUTHWINDS INC,ID,2101 GREENTREE RD,STE A201,,PITTSBURGH,PA,15220-1448
103022013,SPECTRUM SUPPORTS COORDINATION,SPECTRUM SUPPORTS COORDINATION,Autism,470 CARNEGIE DR,,,PITTSBURGH,PA,15243-2042
102237970,TENDER LOVING HOME HEALTH CARE INC,TENDER LOVING HOME HEALTH CARE INC,ID,1000 INTEGRITY DR STE 350,,,PITTSBURGH,PA,15235-3332
100842150,THE HABILITATION GROUP L.L.C.,THE HABILITATION GROUP L.L.C.,ID,7615 WAVERLY ST,,,PITTSBURGH,PA,15221-2735
100680811,TRCIL SERVICES INC,TRCIL SERVICES INC,Autism,900 REBECCA AVE,,,PITTSBURGH,PA,15221-2938
102905948,TUTELAGE RESIDENTIAL SERVICES LLC,TUTELAGE RESIDENTIAL SERVICES LLC,ID,PO BOX 17184,,,PITTSBURGH,PA,15235-0184
102621936,UNCONDITIONAL LOVE INC,UNCONDITIONAL LOVE INC,ID,2423 HAYSON AVE,,,PITTSBURGH,PA,15220-3945
100001904,UPMC PRESBYTERIAN SHADYSIDE,UPMC PRESBYTERIAN SHADYSIDE,Both,600 GRANT ST,58TH FLOOR US STEEL TOWER,,PITTSBURGH,PA,15219-2702
001397663,WESTERN PENNSYLVANIA SCHOOL FOR BLIND CH,WESTERN PENNSYLVANIA SCHOOL FOR BLIND CHILDREN,ID,201 N BELLEFIELD AVE,,,PITTSBURGH,PA,15213-1458
100133627,YMCA OF GREATER PITTSBURGH,YMCA OF GREATER PITTSBURGH,ID,420 FORT DUQUESNE BLVD,SUITE 625,,PITTSBURGH,PA,15222-1435
102874350,NEPA INCLUSIVE,NEPA INCLUSIVE,ID,PO BOX 964,,,PITTSTON,PA,18640-0964
101737409,VALLEY CREST NURSING INC,VALLEY CREST NURSING INC,ID,1555 E END BLVD,,,PLAINS TWP,PA,18702-7927
100652450,JENNIFER MENICHINI,JENNIFER MENICHINI,ID,100 NARROWS RD,,,PlLYMOUTH,PA,18651-3222
102150799,TOTALY SENSE SATIONAL LLC,TOTALY SENSE-SATIONAL,ID,37 E GERMANTOWN PK,STE 201,,PLYMOUTH MEETING,PA,19462-1558
102558340,90 CAFFERTY RD OPERATING COMPANY,90 CAFFERTY ROAD OPERATING COMPANY,ID,PO BOX 217,,,POINT PLEASANT,PA,18950-0217
102503066,CREATIVE LIFE OPTIONS LLC,CREATIVE LIFE OPTIONS LLC,Autism,102 STOCKTON SQ,,,POTTSTOWN,PA,19465-7599
100002320,AVENUES,AVENUES,Both,2 PARK ST,,,POTTSVILLE,PA,17901-3827
100001717,REDCO GROUP,REDCO GROUP,Both,210 S CENTRE ST,,,POTTSVILLE,PA,17901-3501
102571665,SCHUYLKILL COUNTY TRANSPORTATION AUTH,SCHUYLKILL COUNTY TRANSPORTATION AUTHORITY,ID,401 N 2ND ST,,,POTTSVILLE,PA,17901-1756
102824278,ST JOSEPH CENTER FOR SPECIAL,ST JOSEPHS CENTER FOR SPECIAL LEARNING INC,ID,2075 W NORWEGIAN ST,,,POTTSVILLE,PA,17901-1907
100000424,COMMUNITY OPTIONS INC,COMMUNITY OPTIONS INC,Both,16 FARBER RD,,,PRINCETON,NJ,08540-5913
100002957,GREEN ARC INC,GREENE ARC INC,ID,197 DUNN STATION RD,,,PROSPERITY,PA,15329-1625
100001870,TEC CORP DBA FRIENDS & FAMILY,TEC DBA FAMILY & FRIENDS,ID,TEC DBA FAMILY AND FRIENDS,PO BOX 447,100 CAFFERTY RD,PT PLEASANT,PA,18950 -
100000166,BARC DEVELOPMENTAL SERVICES INCORPORATED,BARC DEVELOPMENTAL SERVICES INCORPORATED,ID,1448 S OLD BETHLEHEM PIKE,,,QUAKERTOWN,PA,18951-2718
101667449,RANKIN CHRISTIAN CENTER,RANKIN CHRISTIAN CENTER,ID,230 THIRD STREET,,,RANKIN,PA,15104 -
100680624,BERKS COUNTY CENTER FOR INDEPENDENT LIVI,ABILITIES IN MOTION,ID,210 N 5TH ST,,,READING,PA,19601-3304
001737175,AGELESS HARMONY INC,AGELESS HARMONYINC,ID,224 WEXHAM DR,,,READING,PA,19607-2438
001212867,CHILDREN FIRST HOME HEALTH CARE INC,CHLRN FIRST H H CARE DBA/ALLCARE HC,ID,1220 BROADCASTING RD,SUITE 202,,READING,PA,19610-3221
100003444,DAYSPRING HOMES INC,DAYSPRING HOMES INC,ID,PO BOX 158,,,READING,PA,19607-0158
102819035,JOHN PAUL II CENTER FOR SPECIAL LEARNING,JOHN PAUL II CENTER FOR SPECIAL LEARNING,ID,1092 WELSH RD,,,READING,PA,19607-9363
103030463,NICHOLAS V JOHNSON,NICHOLAS V JOHNSON,Autism,9 ILLINOIS AVE,,,READING,PA,19608-9364
102811897,OPPORTUNITY BEHAVIORAL HEALTH INC,OPPORTUNITY BEHAVIORAL HEALTH INC,Both,543 ELM ST,,,READING,PA,19601-3386
102994616,PERSON DIRECTED CLINICAL SERVICES LLC,PERSON DIRECTED CLINICAL SERVICES LLC,ID,200 PENN ST,,,READING,PA,19602-1000
100001987,PROSPECTUS ASSOCIATES INC,PROSPECTUS ASSOCIATES INC,ID,840 WILLIAM LN,,,READING,PA,19604-1551
100754497,ST JOSEPH REGIONAL HEALTH NETWORK,ST JOSEPH REGIONAL HEALTH NETWORK,ID,2500 BERNVILLE RD,PO BOX 316,,READING,PA,19605-9453
100001940,SUPPORTIVE CONCEPTS FOR FAMILIES INC,SUPPORTIVE CONCEPTS FOR FAMILIES INC,ID,200 PENN ST,,,READING,PA,19602-1000
100001468,THRESHOLD REHAB SERVICES,THRESHOLD REHABILITATION SERVICES INC,ID,1000 LANCASTER AVE,,,READING,PA,19607-1699
100006624,SERVICE ACCESS AND MANAGEMENT INC,SERVICE ACCESS AND MANAGEMENT (SAM) INC,ID,19 N 6TH ST,STE 300,,READING,PA,19601-3582
100004808,THE SPARROW ENTERPRISE,THE SPARROW ENTERPRISE,ID,445 S FRANKLIN ST,,,RED LION,PA,17356-9170
100003883,HELPMATES INC,HELPMATES INC,ID,250 WEST MAIN STREET,,,RIDGEWAY,PA,15853-2033
100773868,CAMERON ELK COUNTIES BEHAVIORAL AND DEVE,CAMERON ELK COUNTIES BEHAVIORAL AND DEVELOPMENTAL,ID,94 HOSPITAL ST,,,RIDGWAY,PA,15853-1974
100000504,DICKINSON CENTER INC,DICKINSON CENTER INC,ID,43 SERVIDEA DR,,,RIDGWAY,PA,15853-6333
001921040,TRACY JOSA PERSONAL CARE HOME,TRACY JOS ADULT DAY CARE,ID,432 MAIN ST,,,ROUSEVILLE,PA,16344 -
001636207,BON HOMIE LTD,BON HOMIE LTD,ID,470 N LEWIS RD,,,ROYERSFORD,PA,19468-1511
100002518,OAK MANOR INC,OAK MANOR INC,ID,4 ERIE AVE,,,SAINT MARYS,PA,15857-1450
102800937,GENE COOK SUPPORTS LLC,GENE COOK SUPPORTS LLC,ID,108 2ND AVE,,,SCOTTDALE,PA,15683-2105
102527738,ADVOCACY ALLIANCE,ADVOCACY ALLIANCE,ID,PO BOX 1368,,,SCRANTON,PA,18501-1368
100000335,ARC OF NORTHEASTERN PA,ARC OF NORTHEASTERN PA,ID,115 MEADOW AVE,,,SCRANTON,PA,18505-2168
100002376,DEUTSCH INSTITUTE APPLIED RESEARCH CENTE,DEUTSCH INSTITUTE APPLIED RESEARCH CENTERS FOR THE,ID,835 JEFFERSON AVE,,,SCRANTON,PA,18510-1031
100003121,GOODWILL INDUSTRIES OF NORTHEASTERN PA,GOODWILL INDUSTRIES OF NORTHEASTERN PA,ID,925 PROSPECT AVE,,,SCRANTON,PA,18505-1858
102894067,INTEGRATIVE COUNSELING SERVICES PC,INTEGRATIVE COUNSELING SERVICES PC,ID,300 MULBERRY ST STE 301,,,SCRANTON,PA,18503-1233
102744829,MELISSA A COTTONE MA LPC BCBA LLC,MELISSA A COTTONE MA LPC BCBA LLC,ID,321 SPRUCE ST STE 502,,,SCRANTON,PA,18503-1445
102298887,SCC CARE,SCC CARE,ID,326 ADAMS AVE,,,SCRANTON,PA,18503-1604
100001950,SCRANTON COUNSELING CENTER,SCRANTON COUNSELING CENTER,ID,326 ADAMS AVE,,,SCRANTON,PA,18503-1604
100001388,ST JOSEPHS CENTER,ST JOSEPHS CENTER,ID,2010 ADAMS AVE,,,SCRANTON,PA,18509-1599
100737923,TELESPOND SENIOR SERVICES INC,TELESPOND SENIOR SERVICES INC,ID,1200 SAGINAW ST,,,SCRANTON,PA,18505 -
100001655,THE ADVOCACY ALLIANCE,THE ADVOCACY ALLIANCE,ID,846 JEFFERSON AVE,,,SCRANTON,PA,18510-1032
100000021,UNITED CEREBRAL PALSY OF NORTHESTERN PA,UNITED CEREBRAL PALSY OF NORTHESTERN PA,ID,425 WYOMING AVE,,,SCRANTON,PA,18503-1227
102731203,FAMILY AND FRIENDS INC,FAMILY AND FRIENDS INC,ID,2138 ROUTE 522,,,SELINSGROVE,PA,17870-8730
001750892,UNION SNYDER COMMUNITY ACTION AGENCY,UNION SNYDER TRANSPORTATION ALLIANC,ID,713 BRIDGE ST,STE 10,,SELINSGROVE,PA,17870-1250
100755761,PENN FOUNDATION INC,PENN FOUNDATION INC,ID,807 LAWN AVE,,,SELLERSVILLE,PA,18960-1549
100003640,ROCKHILL MENNONITE COMMUNITY,ROCKHILL MENNONITE COMMUNITY,ID,3250 STATE RD,,,SELLERSVILLE,PA,18960-1624
100004512,VENANGO TRAINING & DEVELOPMENT CENTER IN,VENANGO TRAINING & DEVELOPMENT CENTER IN,ID,PO BOX 289,,,SENECA,PA,16346-0289
102447726,EPEOPLE HEALTH CARE INC,EPEOPLE HEALTH CARE INC,ID,1108 OHIO RIVER BLVD,SUITE 803,,SEWICKLEY,PA,15143-2049
100003355,VALLEY MEDICAL FACILITIES INC,VALLEY MEDICAL FACILITIES INC,ID,720 BLACKBURN RD,,,SEWICKLEY,PA,15143-1459
100003598,VERLAND CLA,VERLAND,ID,212 IRIS RD,,,SEWICKLEY,PA,15143-2402
102266515,DELBO ASSOCIATES INC,DELBO ASSOCIATES,ID,212 W INDEPENDENCE ST,,,SHAMOKIN,PA,17872-5364
100745353,VNA HEALTH SYSTEM,VNA HEALTH SYSTEM,ID,21 W INDEPENDENCE ST,,,SHAMOKIN,PA,17872-5313
100646210,FAMILY TRANSPORT SERVICES INC,FAMILY TRANSPORT SERVICES INC,ID,315 INDEPENDENCE CT,,,SHARON,PA,16146-3411
100002536,MARY F MILLER,"MILLER, MARY",ID,678 CARNEGIE AVE,,,SHARON,PA,16146-3068
102417905,JOYCELYN J LEWIS,"LEWIS, JOYCELYN",ID,220 HIGH ST,,,SHARON HILL,PA,19079-2113
101946650,CHRISTIAN RESIDENTIAL OPPORTUNITIES SOCI,CHRISTIAN RESIDENTIAL OPPORTUNITIES SOCIAL SERVICE,ID,712 PINOLA RD,,,SHIPPENSBURG,PA,17257-9341
100007505,CLARION COUNTY TAXI INC,CLARION COUNTY TAXI INC,ID,PO BOX 180,RD 3 MANOR CHURCH RD,,SHIPPENVILLE,PA,16254 -
102237175,NEW LIGHT INC,NEW LIGHT INC,ID,10987 ROUTE 322,,,SHIPPENVILLE,PA,16254-4837
100001477,TRAINING TOWARD SELF RELIANCE,TRAINING TOWARD SELF RELIANCE,ID,2500 CANOE RIPPLE RD,,,SLIGO,PA,16255-1648
100000175,BEDFORD SOMERSET MENTAL HEALTH,BEDFORD SOMERSET MENTAL HEALTH,ID,245 W RACE ST,,,SOMERSET,PA,15501-1922
100000818,INDIAN CREEK FOUNDATION,INDIAN CREEK FOUNDATION,Both,420 COWPATH RD,,,SOUDERTON,PA,18964-2036
102523630,THE COMPREHENSIVE LEARNING CENTER INC,THE COMPREHENSIVE LEARNING CENTER INC,Both,150 JAMES WAY,,,SOUTHAMPTON,PA,18966-3818
102555590,KABERNET ASSIST LLC,KABERNET ASSIST LLC,ID,206 HILL CHURCH RD,,,SPRING CITY,PA,19475-2303
101203913,R-HOUSE INC,R-HOUSE INC,ID,331 NEW ST,,,SPRING CITY,PA,19475-1746
102727793,RONI VANDAGNA AND JENNIFER BRODIE,RONI VANDAGNA AND JENNIFER BRODIE,Both,111 N MAIN ST,,,SPRING CITY,PA,19475-1827
102426136,RESCARE PENNSYLVANIA HOME HEALTH ASSOC,RESCARE PA HOME HEALTH ASSOCIATES INC,ID,909 SUMNEYTOWN PIKE,STE 105,,SPRING HOUSE,PA,19477-1011
100003159,DIVINE PROVIDENCE VILLAGE,DIVINE PROVIDENCE VILLAGE,ID,686 OLD MARPLE RD,,,SPRINGFIELD,PA,19064-1239
001415073,LIFELINE HOME HEALTH INC,LIFELINE HOME HEALTH INC,ID,530 BALTIMORE PIKE,SUITE 1,,SPRINGFIELD,PA,19064-3542
100003749,MERCY HOME HEALTH SERVICES,MERCY HOME HEALTH SERVICES,ID,1001 BALTIMORE PIKE,STE 310,,SPRINGFIELD,PA,19064-2852
102781715,SPECTRA SUPPORT SERVICES LLC,SPECTRA SUPPORT SERVICES LLC,Both,724 W ROLLING RD,,,SPRINGFIELD,PA,19064-1121
100000569,ELCAM INC,ELCAM INC,ID,189 WEST CREEK ROAD,,,ST MARYS,PA,15857 -
100000157,ARC CENTRE COUNTY,ARC CENTRE COUNTY,ID,1840 N ATHERTON ST,,,STATE COLLEGE,PA,16803-1520
100002349,EASTER SEALS CENTRAL PENNSYLVANIA,EASTER SEALS CENTRAL PENNSYLVANIA,ID,383 ROLLING RIDGE DR,,,STATE COLLEGE,PA,16801-7679
100001323,SKILLS OF CENTRAL PENNSYLVANIA INC,SKILLS OF CENTRAL PENNSYLVANIA INC,ID,341 SCIENCE PARK RD,STE 6,,STATE COLLEGE,PA,16803-2287
100001682,STRAWBERRY FIELDS INC,STRAWBERRY FIELDS INC,ID,3054 ENTERPRISE DR,,,STATE COLLEGE,PA,16801-2755
100000362,BURNLEY WORKSHOP OF THE POCONOS INC,BURNLEY WORKSHOP OF THE POCONOS INC,ID,4219 MANOR DR,,,STROUDSBURG,PA,18360-9451
100007256,CARBON-MONROE-PIKE MENTAL HEALTH AND DEV,CARBON-MONROE-PIKE MENTAL HEALTH AND DEVELOPMENTAL,ID,724 PHILLIPS ST,STE 202,,STROUDSBURG,PA,18360-2242
100002106,DEVELOPMENTAL EDU SRVS OF MONROE CO INC,DEVELOPMENTAL ED SERV OF MONROE CO,ID,400 POWERHOUSE LN,,,STROUDSBURG,PA,18360-6550
100001762,FITZMAURICE COMMUNITY SERVICES INC,FITZMAURICE COMMUNITY SERVICES INC,Both,2115 N 5TH ST,,,STROUDSBURG,PA,18360-2801
100007354,HELPING HAND OUTREACH SERVICES INC,HELPING HAND OUTREACH SERVICES INC,ID,25 N 10TH ST,,,STROUDSBURG,PA,18360-1726
100006894,CAMBRIA HEALTH SERVICES,CAMBRIA HEALTH SERVICES INC,ID,1506 RAILROAD ST,,,SUMMERHILL,PA,15958 -
001125313,CAMBRIA HOME HEALTH,CAMBRIA HOME HEALTH INC,ID,1506 RAILROAD ST,,,SUMMERHILL,PA,15958-3312
100737807,NORTHUMBERLAND CONTY AAA,NORTHUMBERLAND COUNTY,ID,399 S 5TH ST,,,SUNBURY,PA,17801-3201
102152550,PAULS CAB SERVICE INC,PAULS CAB SERVICE INC,ID,735 MARKET ST,,,SUNBURY,PA,17801-2356
101490123,SHARED SUPPORTS INC,SHARED SUPPORTS INC,Both,218 BRIDGE AVE,,,SUNBURY,PA,17801-1006
001772165,VNA PRIVATE DUTY,VNA PRIVATE DUTY,ID,1070 MARKET ST 2ND FLR,,,SUNBURY,PA,17801 -
102680131,WARM HEARTS HOME CARE AGENCY INC,WARM HEARTS HOME CARE AGENCY INC,ID,36 S 2ND ST,,,SUNBURY,PA,17801-2617
100002053,CHILDREN & ADULT DISABILITY & EDU SRVS,CHILDREN AND ADULT DISABILITY AND EDUCATIONAL SERV,ID,401 RUTGERS AVE,,,SWARTHMORE,PA,19081-2436
100000228,COMMUNITY INTERACTIONS INC,COMMUNITY INTERACTIONS INC,ID,740 S CHESTER RD,,,SWARTHMORE,PA,19081-2226
102823708,CARES COMMUNITY AND RESIDENTIAL EMPOWERM,CARES COMMUNITY AND RESIDENTIAL EMPOWERMENT SERVIC,ID,105 W BROAD ST,SUITE 200,,TAMAQUA,PA,18252-1916
001718287,TAMAQUA AREA ADULT DAY CARE CENTER,TAMAQUA AREA ADULT DAY CARE CENTER,ID,300 W BROAD ST,,,TAMAQUA,PA,18252 -
000558142,BLACKBURNS PHYSICIANS PHARMACY INC,BLACKBURNS PHYSICIANS PHARMACY INC,ID,301 CORBET STREET,,,TARENTUM,PA,15084 -
100002151,HANDI-CRAFTERS INC,HANDI-CRAFTERS INC,ID,PO BOX 72646,215 BARLEY SHEAF ROAD,,THORNDALE,PA,19372 -
102312707,DONNA MARIE CARNEY,"CARNEY, DONNA",ID,21 WOODRIDGE RD,,,THORNTON,PA,19373-1039
100778069,BRADFORD-SULLIVAN MH/MR,BRADFORD COUNTY HUMAN SERVICES,ID,220 MAIN STREET UNIT # 1,,,TOWANDA,PA,18848 -
100004307,FUTURES COMMUNITY SUPPORT SERVICES INC,FUTURES COMMUNITY SUPPORT SERVICES INC,ID,23 MAIN ST,,,TOWANDA,PA,18848-1803
101554481,MARTHA LLOYD COMMUNITY RESIDENTIAL FACIL,MARTHA LLOYD COMMUNITY RESIDENTIAL FACILITY INC,ID,66 LLOYD LN,,,TROY,PA,16947-1502
100000353,WYOMING COUNTY SPECIAL NEEDS ASSOCIATION,WYOMING COUNTY SPECIAL NEEDS ASSOCIATION,ID,636 SR 29 N,,,TUNKHANNOCK,PA,18657-7113
001958864,ALLIANCE HEALTH WRAPAROUND-ALLEGHENY INC,ALLIANCE HEALTH WRAPAROUND-ALLEGHENY INC,Autism,634 BROWN AVE,,,TURTLE CREEK,PA,15145-1138
100000326,ARC FAYETTE,ARC FAYETTE,ID,80 OLD NEW SALEM RD,,,UNIONTOWN,PA,15401-8902
100753829,COUNTY OF FAYETTE,COUNTY OF FAYETTE,ID,215 JACOB MURPHY LN,,,UNIONTOWN,PA,15401-2777
100000658,FAYETTE RESOURCES INCORPORATED,FAYETTE RESOURCES INCORPORATED,Both,1 MILLENIUM DR,STE 2,,UNIONTOWN,PA,15401-6408
100001065,LAUREL HOUSE INCORPORATED,LAUREL HOUSE INCORPORATED,ID,197 W MAIN ST,,,UNIONTOWN,PA,15401-5535
102273091,MENTAL HEALTH ASSOCIATION IN FAYETTE COU,MENTAL HEALTH ASSOCIATION IN FAYETTE COUNTY,ID,652 MORGANTOWN RD LOWER LE,VEL,,UNIONTOWN,PA,15401-5422
102145707,WJS ALLEGHENY PSYCHOLOGICAL ASSOCIATES I,WJS ALLEGHENY PSYCHOLOGICAL ASSOCIATES INC,Autism,99 S PENNSYLVANIA AVE,,,UNIONTOWN,PA,15401-4236
102142803,WJS PSYCHOLOGICAL ASSOCIATES INC,WJS PSYCHOLOGICAL ASSOCIATES INC,ID,99 S PENNSYLVANIA AVE,,,UNIONTOWN,PA,15401-4236
100270742,PENNSYLVANIA STATE UNIVERSITY,PENNSYLVANIA STATE UNIVERSITY,ID,123 BENNETT FAMILY CTR,,,UNIVERSITY PARK,PA,16802 -
102731179,DENNIES SEALEY,BEATTITUDES HOME HEALTH CARE,Autism,272 COPLEY RD,,,UPPER DARBY,PA,19082-4016
102505150,GSI HOME CARE SOLUTIONS LLC,GSI HOME CARE SOLUTIONS LLC,ID,220 ASHBY RD,,,UPPER DARBY,PA,19082-4014
102557835,MULTICULTURAL COMMUNITY FAMILY SERVICES,MULTICULTURAL COMMUNITY FAMILY SERVICES INC,ID,7016 TERMINAL SQ,SUITE 4-A,,UPPER DARBY,PA,19082-2338
102932041,SONBEST FAMILY SERVICES LLC,SONBEST FAMILY SERVICES LLC,ID,7148 RADBOURNE RD,,,UPPER DARBY,PA,19082-5232
100003613,NETWORKS FOR TRAINING AND DEVELOPMENT,NETWORKS FOR TRAINING AND DEVELOPMENT,ID,PO BOX 206,,,VALLEY FORGE,PA,19481-0206
001252601,PERSONAL HEALTH CARE INC,PERSONAL HEALTH CARE INC,ID,1220 VALLEY FORGE RD,STE 13,,VALLEY FORGE,PA,19482 -
100910063,PROFESSIONAL NURSING SERVICES INC,PROFESSIONAL NURSING SERVICES INC,ID,PO BOX 987,,,VALLEY FORGE,PA,19482-0987
101231749,BYERS TAXI SERVICE INC,BYERS TAXI SERVICE INC,ID,214 1/2 LONGFELLOW ST,,,VANDERGRIFT,PA,15690-1445
100002634,KISKI VALLEY OPPORTUNITIES UNLIMITED,KISKI VALLEY OPPORTUNITIES UNLIMITED INC,ID,129 COLUMBIA AVE,PO BOX 305,,VANDERGRIFT,PA,15690-0305
102902150,AIMED,AIMED,ID,6149 SALTSBURG RD,,,VERONA,PA,15147-3542
102726787,HEART II HEART LLC,HEART II HEART LLC,ID,1656 RELATIVE DR,,,VERONA,PA,15147-2300
102477331,KZL AGENCY,KZL AGENCY,ID,261 LANSDOWNE DR,,,VERONA,PA,15147-2811
102693229,MILLER HABILITATIVE SERVICES,"MILLER, ANTHONY",ID,240 BRAMBLE ST,,,VERONA,PA,15147-1613
100001225,PAULA TEACHER AND ASSOCIATES INC,PAULA TEACHER AND ASSOCIATES INC,Both,6149 SALTSBURG RD,SUITE 4,,VERONA,PA,15147-3542
102648466,TAMARA BARNETT,TAMARA BARNETT,ID,151 LISA DR,,,VERONA,PA,15147-1538
102280944,VINCENT WINTERLING,"WINTERLING, VINCENT",ID,1413 VENEZIA AVE,,,VINELAND,NJ,08361-8624
102817390,EWING HOUSE LLC,EWING HOUSE LLC,ID,89 OLD NATIONAL PIKE RD,,,W ALEXANDER,PA,15376 -
102693944,KEY LIFE HUMAN SERVICES LLC,KEY LIFE HUMAN SERVICES LLC,ID,618 WILDER RD,,,WALLINGFORD,PA,19086-6837
100006544,CAROUSEL FARMS EDUCATION CENTER INC,CAROUSEL FARMS EDUCATION CENTER INC,ID,226 GRENOBLE RD,,,WARMINSTER,PA,18974-1200
100000148,BOLLINGER ENTERPRISES INC,BOLLINGER ENTERPRISES INC,ID,44 N STATE ST,,,WARREN,PA,16365-4860
100767216,WARREN COUNTY COMMISSIONERS,WARREN COUNTY COMMISSIONERS,ID,285 HOSPITAL DR,,,WARREN,PA,16365-4886
100001216,PASSAVANT MEMORIAL HOMES,PASSAVANT MEMORIAL HOMES,Both,163 THORN HILL RD,,,WARRENDALE,PA,15086-7527
100000012,ARC HUMAN SERVICES INC,ARC HUMAN SERVICES INC,ID,470 JOHNSON RD,SUITE 200,,WASHINGTON,PA,15301-8944
100227296,COUNTY OF WASHINGTON,COUNTY OF WASHINGTON,ID,100 W BEAU ST,STE 403,,WASHINGTON,PA,15301-4432
100001520,PATHWAYS OF SOUTHWESTERN PENNSYLVANIA IN,PATHWAYS OF SOUTHWESTERN PENNSYLVANIA INC,ID,655 JEFFERSON AVE,,,WASHINGTON,PA,15301-4118
101604761,TRANSITIONAL EMPLOYMENT CONSULTANTS,TRANSITIONAL EMPLOYMENT CONSULTANTS,ID,330 CENTRAL AVE,,,WASHINGTON,PA,15301-3504
100004100,WASHINGTON COMMUNITIES HUMAN SERVICES IN,WASHINGTON COMMUNITIES HUMAN SERVICES INC,ID,378 W CHESTNUT ST,STE,,WASHINGTON,PA,15301-4659
102093567,WASHINGTON COUNTY TRANSPORTATION AUTHORI,WASHINGTON COUNTY TRANSPORTATION AUTHORITY,ID,382 W CHESTNUT ST STE 108,,,WASHINGTON,PA,15301-4642
100001557,WASHINGTON GREENE ARS,WASHINGTON-GREENE ALT RESIDENTIAL SVCS INC,ID,621 N MAIN ST,,,WASHINGTON,PA,15301-3911
100002231,ST JOHNS COMMUNITY SERVICES,ST JOHNS COMMUNITY SERVICES,ID,2201 WISCONSIN AVE NW,,SUITE 301,WASHINGTON,DC,20007-4105
102272049,PATRICKS PROGRESS,PATRICKS PROGRESS,ID,24 E 3RD ST,,,WATSONTOWN,PA,17777 -
100731993,COUNTY OF GREENE COMMISSIONERS OFFI,GREENE COUNTY HUMAN SRVS PGRM,ID,93 E HIGH ST,,,WAYNESBURG,PA,15370-1839
103033993,CANYON COUNTRY CABS LLC,CANYON COUNTRY CABS LLC,ID,247 TIOGA ST,,,WELLSBORO,PA,16901-6776
100765534,COUNTY OF CHESTER,CHESTER COUNTY MH/MR,ID,PO BOX 2748,,,WEST CHESTER,PA,19380-0991
100861933,EDWARD M COHLE,"COHLE, EDWARD",ID,1255 UPTON CIR,,,WEST CHESTER,PA,19380-5859
102715729,DIANE E WILLIAMS,DIANE E WILLIAMS,ID,1327 GREEN HILL AVE,,,WEST CHESTER,PA,19380-3959
102293791,TEMPO MUSIC THERAPY SERVICES LTD,TEMPO MUSIC THERAPY SERVICES LTD,ID,7 N 5 POINTS RD,,,WEST CHESTER,PA,19380-4777
100003570,THE ARC OF CHESTER COUNTY,THE ARC OF CHESTER COUNTY,Both,900 LAWRENCE DR,,,WEST CHESTER,PA,19380-3415
100002625,VOLUNTEERS OF AMERICA INC VOA DELAWARE V,VOLUNTEERS OF AMERICA INC VOA DELAWARE VALLEY INC,ID,235 WHITE HORSE PIKE,,,WEST COLLINGSWOOD,NJ,08107-1951
102987611,NOT FORGOTTEN HOME AND COMMUNITY SERVICE,NOT FORGOTTEN HOME AND COMMUNITY SERVICE,ID,225 COMMONWEALTH AVE,,,WEST MIFFLIN,PA,15122-1927
001874568,SALVATION ARMY,SALVATION ARMY & ITS COMPONENTS,ID,440 W NYACK RD,,,WEST NYACK,NY,10994-1753
102378244,ARC OF CARROLL COUNTY INC,ARC OF CARROLL COUNTY INC,ID,180 KRIDERS CHURCH RD,,,WESTMINSTER,MD,21158-4307
100001898,INVISION CUSTOMIZED SERVICES,INVISION CUSTOMIZED SERVICES,Both,12450 PERRY HWY,,,WEXFORD,PA,15090-7387
102275523,WOODLANDS FOUNDATION INC,WOODLANDS FOUNDATION INC,ID,134 SHENOT RD,,,WEXFORD,PA,15090-7455
102823691,BURGIT CITY TAXI INC,BURGIT CITY TAXI INC,ID,565 S MAIN ST,,,WILKES BARRE,PA,18701-2101
100003462,CREATING UNLIMITED POSSIBILITIES INC,CREATING UNLIMITED POSSIBILITIES INC,ID,159 SIMPSON ST,,,WILKES BARRE,PA,18702-1499
100002760,LUZERNE COUNTY TREASURERS OFFICE,LUZERNE COUNTY TREASURERS OFFICE,ID,CONTROLLERS OFFICE,200 N RIVER ST,,WILKES BARRE,PA,18711 -
100001397,STEP BY STEP INC,STEP BY STEP INC,Both,744 KIDDER ST,,,WILKES BARRE,PA,18702-7015
100006660,VOLUNTEERS OF AMERICA INC,VOLUNTEERS OF AMERICA PENNSYLVANIA INC,ID,25 N RIVER ST,,,WILKES BARRE,PA,18702-2427
,,LUZERNE-WYOMING COUNTIES MH/DS PROGRAM,,111 N. Pennsylvania Avenue Suite 200,,,Wilkes-Barre,PA,18701-3511
101319276,GANISTER STATION,GANISTER STATION,ID,RR # 2 BOX 331 M,,,WILLIAMSBURG,PA,16693 -
100000925,MATTERN HOUSE INC,MATTERN HOUSE INC,ID,1377 ROUTE 22,,,WILLIAMSBURG,PA,16693-9021
100003829,CENTER FOR INDEPENDENT LIVING OF NC PA,CENTER FOR INDEPENDENT LIVING OF NC PA,Autism,24 E 3RD ST,,,WILLIAMSPORT,PA,17701-6621
100004174,GREGORYS JOURNEY,GREGORYS JOURNEY,ID,24 E 3RD ST,,,WILLIAMSPORT,PA,17701-6621
100001593,HOPE CONSOLIDATED SERVICES INC,HOPE ENTERPRISES INCORPORATED,Both,2401 REACH RD,,,WILLIAMSPORT,PA,17701-4193
101207823,LYCOMING CLNTN CTYS COMM ACT,LYCOMING CLINTON COUNTIES COMMISSION FOR COMM ACTI,ID,2138 LINCOLN ST,,,WILLIAMSPORT,PA,17701-5588
100733218,LYC-CLN MH/MR PROGRAM,LYCOMING/CLINTON MH/MR PROGRAM,ID,200 EAST ST,,,WILLIAMSPORT,PA,17701-6613
102891566,NATIONAL CARE HUMAN SERVICES,NATIONAL CARE HUMAN SERVICES,ID,2300 COMPUTER RD STE A5,,,WILLOW GROVE,PA,19090-1733
102939042,OLIVE BRANCH OF HOPE INC,OLIVE BRANCH OF HOPE INC,ID,118 W WILLOW RD,,,WILLOW STREET,PA,17584-9322
102597456,LIFE CHANGING SUPPORT SERVICES INC,LIFE CHANGING SUPPORT SERVICES INC,ID,PO BOX 213,,,WILMORE,PA,15962-0213
001938558,ALLISONS CARING KOALAS,ALLISONS CARING KOALAS,ID,321 OLD BEDFORD PIKE,,,WINDBER,PA,15963-8906
101579542,EASTERN CHRISTIAN CHILDRENS RETREAT,EASTERN CHRISTIAN CHILDRENS RETREAT,ID,700 MOUNTAIN AVE,,,WYCKOFF,NJ,07481-1099
102437309,RELIABLE INCORPORATED,RELIABLE INCORPORATED,ID,2010 WYOMING AVE,,,WYOMING,PA,18644-1361
100007461,ADVANTAGE HOME CARE INC,ADVANTAGE HOME CARE INC,ID,1170 BERKSHIRE BLVD,,,WYOMISSING,PA,19610 -
100005091,BELL SOCIALIZATION SERVICES INC,BELL SOCIALIZATION SERVICES INC,ID,160 S GEORGE ST,,,YORK,PA,17401-1408
100007597,JESSICA AND FRIENDS COMMUNITY,JESSICA AND FRIENDS COMMUNITY,ID,1625 E MARKET ST,,,YORK,PA,17403-5802
102953391,LIFES NEW BEGINNING,LIFES NEW BEGINNING,ID,461 GUN CLUB RD,,,YORK,PA,17406-8631
100002966,THE ARC OF YORK COUNTY INC,THE ARC OF YORK COUNTY INC,ID,497 HILL ST,,,YORK,PA,17403-5703
100003103,THE SHADOWFAX CORPORATION,THE SHADOWFAX CORPORATION,ID,386 PATTISON ST,,,YORK,PA,17403-2416
100005144,TYPICAL LIFE CORPORATION,TYPICAL LIFE CORPORATION,ID,707 LOUCKS RD,,,YORK,PA,17404-1730
102406231,YORK COUNTY TRANSPORTATION AUTHORITY,YORK COUNTY TRANSPORTATION AUTHORITY,ID,1230 ROOSEVELT AVE,,,YORK,PA,17404-2206
100006769,COUNTY OF YORK,YORK/ADAMS MH-MR PROGRAM,ID,OFFICE OF CONTROLLER,28 E MARKET STREET RM 232,,YORK,PA,17401 -
102435986,FAMILY FIRST SUPPORTS AND CONSULTING LLC,FAMILY FIRST SUPPORTS AND CONSULTING LLC,ID,921 BIRCH HILL DR,,,YOUNGSTOWN,OH,44509-3019
102405824,IRON AND STRING LIFE ENHANCEMENT INC,IRON AND STRING LIFE ENHANCEMENT INC,ID,12 S PHELPS ST,,,YOUNGSTOWN,OH,44503-1316
102929028,YOUR HOMES LLC,YOUR HOMES LLC,ID,PO BOX 3460,,,YOUNGSTOWN,OH,44513-3460
